okt. 27, 2023 1:19:41 P.M. alien.config.ConfigUtils init
FINE: Configuration loaded. Own logging configuration: true, ML configuration detected: false
okt. 27, 2023 1:19:42 P.M. alien.monitoring.MonitorFactory getMonitorDataSender
FINE: ApMon destinations : [localhost]
okt. 27, 2023 1:19:42 P.M. alien.monitoring.MonitorFactory enableSelfMonitoring
FINE: Enabling background self monitoring of PID 10458 every 60 seconds
