okt. 27, 2023 1:19:42 P.M. alien.monitoring.MonitorFactory enableSystemMonitoring
WARNING: Cannot instantiate monProcIO
lia.Monitor.modules.MLModuleInstantiationException: Cannot read /proc/net/dev
	at lia.Monitor.modules.monProcIO.<init>(monProcIO.java:141)
	at alien.monitoring.MonitorFactory.enableSystemMonitoring(MonitorFactory.java:217)
	at alien.monitoring.MonitorFactory$1.run(MonitorFactory.java:77)

okt. 27, 2023 1:19:42 P.M. alien.monitoring.MonitorFactory enableSystemMonitoring
WARNING: Cannot instantiate monProcStat
lia.Monitor.modules.MLModuleInstantiationException: Cannot read or parse /proc/stat and /proc/vmstat
	at lia.Monitor.modules.monProcStat.<init>(monProcStat.java:212)
	at alien.monitoring.MonitorFactory.enableSystemMonitoring(MonitorFactory.java:225)
	at alien.monitoring.MonitorFactory$1.run(MonitorFactory.java:77)

okt. 27, 2023 1:19:42 P.M. alien.monitoring.MonitorFactory enableSystemMonitoring
WARNING: Cannot instantiate monProcLoad
lia.Monitor.modules.MLModuleInstantiationException: Cannot read /proc/loadavg
	at lia.Monitor.modules.monProcLoad.<init>(monProcLoad.java:65)
	at alien.monitoring.MonitorFactory.enableSystemMonitoring(MonitorFactory.java:233)
	at alien.monitoring.MonitorFactory$1.run(MonitorFactory.java:77)

