okt. 27, 2023 1:19:57 P.M. alien.monitoring.MonitorDataSender sendParameters
FINEST: Sending on ALIEN_System_Nodes / jrn-ares-mbp.home
[ip0_v4_private_en0, en0_IPv4, en0_IPv4_type, ip_visible, uptime, hostname, kernel_version, os_type, java_version, os_name, platform]
[192.168.80.105, 192.168.80.105, private, 91.126.14.200, 0.22152777777777777, jrn-ares-mbp.home, 14.1, Mac OS X, 17.0.7, Mac OS X, aarch64]
