Total CPU core usage (Jobs),User ID,User CPU Core usage,Computed Priority start of Job
6,4,6,1.0E7
12,4,12,1661666.6666691592
16,3,4,1000000.0
18,4,14,828333.3333358183
32,4,28,709285.7142881968
40,4,36,352142.85714532214
41,4,37,272777.7777802328
55,4,51,265270.27027272404
59,3,8,249500.00000024948
61,4,53,191078.43137498532
71,4,63,183679.24528545263
73,4,65,153730.15873258
87,4,79,148846.1538485726
89,3,10,124500.000000249
97,4,87,121582.27848341392
111,4,101,109942.52873802345
113,0,2,100000.0
114,1,1,100000.0
120,2,6,100000.0
126,1,7,99990.000000025
127,3,11,99500.00000024876
137,4,111,94009.90099247276
143,3,17,90409.09090933953
149,4,117,85090.09009245134
159,4,127,80470.08547243924
163,4,131,73740.15748265621
171,4,139,71335.87786493167
173,4,141,66942.44604549171
187,4,155,65921.98581792659
191,4,159,59516.129034564314
193,3,19,58323.52941201259
197,4,163,57893.08176330754
211,4,177,56349.69325382999
221,3,29,52131.57894761605
235,4,191,51497.17514352169
237,0,4,49990.000000025
245,4,199,47356.020944669624
259,4,213,45251.25628365829
265,4,219,41948.356809745484
275,4,229,40662.10045884725
277,4,231,38668.122272956105
283,4,237,38290.043292254544
291,4,245,37194.09282920797
301,4,255,35816.32653280599
307,4,261,34215.686276691056
315,3,37,33982.75862093603
319,4,265,33314.17624738447
323,4,269,32735.84905877252
337,4,283,32174.721191754827
345,4,291,30335.689048082644
351,4,297,29364.26117052113
357,4,303,28670.033672162423
361,4,307,28003.300332154253
365,4,311,27573.28990439638
371,4,317,27154.340838124113
381,4,327,26545.741327024887
395,3,51,26527.02702727241
403,4,335,25581.03975744293
407,0,8,24990.000000024993
411,4,339,24850.746270737967
413,4,341,24498.525075822563
427,4,355,24325.51319855469
441,4,369,23169.014086563293
442,4,370,22100.271004748778
448,4,376,22027.027029064528
462,4,390,21595.744682881064
468,4,396,20641.025643038138
482,4,410,20252.525254530254
490,4,418,19390.243904426527
500,3,61,19107.84313749853
504,4,422,18923.444978054056
510,4,428,18696.68246642748
516,4,434,18364.48598327341
524,4,442,18041.47465633538
526,4,444,17624.434391087772
532,4,450,17522.52252446752
540,4,458,17222.222224159723
544,4,462,16834.061137298682
546,2,8,16656.66666669165
552,4,468,16645.021646944144
558,4,474,16367.521369436367
566,4,482,16097.04641540961
574,3,69,15893.442623193196
576,4,484,15746.887968702478
582,4,490,15661.157026688388
588,4,496,15408.163267193624
589,4,497,15161.290324460646
603,4,511,15120.724347955213
609,4,517,14569.471626127395
613,4,521,14342.359769745433
617,1,11,14275.714285739266
627,4,531,14193.857967299806
633,3,75,13992.75362342978
639,4,537,13832.391715583895
653,4,551,13621.97393106525
659,4,557,13148.820328490016
673,4,571,12953.32136625617
681,3,83,12833.33333357396
687,4,577,12513.134852924604
701,0,22,12490.000000024978
709,2,16,12490.000000024978
710,4,578,12331.02253210804
724,4,592,12301.038064061238
726,4,594,11891.89189365189
740,4,608,11835.016836774337
746,3,89,11548.192771323962
760,4,622,11447.368422792631
766,4,628,11077.170419728933
780,4,642,10923.56688069589
786,3,95,10735.955056418652
787,4,643,10576.323989236442
797,4,653,10552.099535133264
811,4,667,10313.935683153888
817,3,101,10026.315789711809
823,4,673,9992.503749792186
824,4,674,9858.841012059938
834,4,684,9836.79525388302
840,4,690,9619.88304258067
850,4,700,9492.753624825906
864,3,115,9400.990099247276
874,4,710,9285.714287339286
880,4,716,9084.507043866022
890,1,21,9080.909090934063
896,4,722,8966.480448532375
906,4,732,8850.415514062872
916,4,742,8661.20218737735
918,4,744,8477.08895035956
932,4,758,8440.860216623763
938,3,121,8195.65217414867
940,4,760,8192.612138755667
946,4,766,8157.894738392106
960,4,780,8054.830288748765
974,4,794,7820.51282203782
975,3,122,7764.46281015223
976,3,123,7696.721311710161
978,3,125,7630.081301047633
984,4,800,7594.458439794653
988,4,804,7500.0000015
992,3,129,7500.000000234375
998,4,810,7437.810946768632
1000,4,812,7345.679013833178
1001,4,813,7315.27093744559
1011,4,823,7300.123002713763
1025,3,143,7251.937984729999
1029,4,827,7150.668288227022
1043,4,841,7091.898429519455
1057,4,855,6890.606422376217
1063,4,861,6695.906434179788
1069,4,867,6614.401859728048
1070,4,868,6534.025376272073
1080,4,878,6520.737328603941
1086,3,149,6493.006993239118
1087,4,879,6389.521641493615
1088,4,880,6376.564278989418
1094,4,886,6363.636365036365
1100,4,892,6286.681716968121
1114,2,30,6240.00000002496
1116,3,151,6211.409396204529
1126,4,902,6210.762333223564
1128,3,153,6122.516556522517
1138,4,912,6086.474502481147
1144,3,159,6035.947712649176
1148,4,916,5964.912282061755
1158,4,926,5917.030569040589
1164,4,932,5799.13607045697
1174,3,169,5789.308176330754
1182,4,940,5729.61373524058
1186,4,944,5638.297873665426
1188,4,946,5593.220340303052
1194,4,952,5570.824525630397
1195,4,953,5504.201681982268
1199,4,957,5493.179434677061
1200,4,958,5449.320795452131
1214,4,972,5438.413362471602
1220,3,175,5417.159763542484
1226,4,978,5288.065844906399
1232,4,984,5224.948876533123
1238,3,181,5214.28571451384
1248,4,994,5162.60162728626
1250,4,996,5060.362174295729
1254,4,1000,5040.160643825281
1256,3,183,5024.861878680414
1260,3,187,4964.480874544064
1268,3,195,4847.593583114325
1274,1,27,4751.90476192971
1280,3,201,4628.205128430753
1281,0,23,4535.454545479491
1283,3,203,4475.124378334328
1289,3,209,4426.108374608862
1290,0,24,4337.826086981464
1300,3,219,4284.688995439185
1306,0,30,4156.666666691606
1310,3,223,4066.210045884725
1316,3,229,3984.3049329575506
1318,3,231,3866.812227295611
1326,3,239,3829.0043292254545
1332,1,33,3693.703703728636
1346,3,253,3684.1004186301666
1352,3,259,3452.5691701788487
1354,3,261,3361.0038612214867
1362,3,269,3331.4176247384476
1372,0,40,3323.3333333582586
1380,2,38,3323.3333333582586
1388,3,277,3217.4721191754825
1390,3,279,3110.1083034644726
1391,3,280,3084.2293908961287
1397,3,286,3071.428571643572
1399,1,35,3020.303030327948
1413,3,300,2996.5034967177467
1419,1,41,2847.14285716777
1423,3,304,2833.3333335458333
1433,3,314,2789.473684422526
1439,3,320,2684.7133760069282
1449,3,330,2625.00000021
1459,2,48,2621.578947393326
1463,3,334,2530.30303051178
1469,3,340,2494.011976256154
1470,0,41,2490.0000000249
1476,3,346,2441.1764707957354
1477,0,42,2429.0243902688003
1483,1,47,2429.0243902688003
1497,3,360,2390.1734106113745
1499,0,44,2370.9523809772763
1505,3,366,2277.777777982778
1513,0,52,2262.7272727521627
1514,3,367,2232.24043736272
1524,3,377,2224.7956405311006
1528,3,381,2152.5198941020794
1534,3,387,2124.671916212874
1542,1,55,2117.6595744929677
1546,3,391,2083.9793283669997
1552,2,54,2073.3333333582127
1562,3,401,2057.544757234373
1570,3,409,1993.7655862347879
1580,3,419,1944.9877752599998
1594,0,66,1913.0769231017932
1608,3,433,1886.6348450663597
1614,2,60,1841.8518518767169
1618,3,437,1809.4688223667756
1620,1,57,1808.1818182066809
1622,3,439,1788.3295196461759
1630,3,447,1777.9043282133482
1636,1,63,1744.385964937138
1642,3,453,1737.13646551851
1652,3,463,1707.5055189571717
1660,3,471,1659.827214015019
1670,2,70,1656.6666666915169
1671,3,472,1623.1422507219104
1681,3,482,1618.6440679876102
1685,1,67,1577.3015873264296
1695,3,492,1574.6887968702479
1705,3,502,1532.520325391752
1711,0,72,1505.1515151763501
1717,3,508,1492.0318726972105
1718,1,68,1482.5373134576685
1724,3,514,1468.503937194374
1725,1,69,1460.5882353189475
1726,3,515,1445.5252920145438
1734,3,523,1441.7475730011588
1736,1,71,1439.2753623436681
1740,2,74,1418.5714285962538
1746,3,529,1412.0458892859633
1760,1,85,1398.4507042501746
1762,3,531,1390.3591684258413
1766,3,535,1383.2391715583894
1767,0,73,1378.888888913709
1773,3,541,1369.1588786877978
1779,0,79,1359.8630137234477
1780,3,542,1348.4288356722086
1790,3,552,1345.0184503667517
1791,2,75,1341.3513513761663
1805,2,89,1323.3333333581459
1806,3,553,1311.5942030795504
1814,3,561,1308.3182641953415
1820,3,567,1282.5311944757752
1822,3,569,1263.6684305142219
1830,3,577,1257.4692444671
1834,0,83,1255.8227848349293
1838,3,581,1233.1022532108038
1842,3,585,1221.1703960465663
1848,3,591,1209.4017095785846
1856,0,91,1194.819277133226
1870,3,605,1192.04737750269
1876,1,91,1166.470588260082
1882,3,611,1152.892562157846
1890,3,619,1136.6612113029214
1894,3,623,1115.508885471494
1900,2,95,1113.595505642755
1906,3,629,1105.1364367692358
1907,3,630,1089.825119408259
1917,0,101,1088.9010989258716
1927,1,101,1088.9010989258716
1941,3,644,1087.3015874728374
1943,3,646,1052.7950312254004
1949,3,652,1047.9876162683213
1951,2,97,1042.631578972131
1953,3,654,1033.7423314568432
1967,3,668,1029.051987935834
1977,2,107,1020.9278350763037
1983,3,674,997.0059881904521
1997,3,688,983.6795253883018
1999,0,103,980.0990099257376
2000,1,102,980.0990099257376
2006,1,108,970.39215688749
2012,0,109,960.8737864325095
2016,3,692,953.4883722570232
2026,3,702,945.0867053658122
2028,2,109,924.5794392770689
2042,3,716,924.5014246636745
2048,1,114,915.9259259506559
2054,0,115,907.4311926852781
2056,2,111,907.4311926852781
2057,3,717,896.6480448532376
2067,3,727,894.7001396303888
2081,2,125,890.9009009256235
2083,3,729,875.5158185910369
2089,3,735,871.7421126417282
2095,1,120,867.1929824808554
2096,3,736,860.5442178451998
2102,0,121,859.565217416017
2104,3,738,858.6956523319132
2105,3,739,855.0135502932515
2107,3,741,853.1799730940255
2121,3,755,849.5276654745138
2135,3,769,824.5033114139031
2139,1,124,823.3333333580333
2149,0,131,816.4462810164331
2157,3,777,800.3901171889856
2165,1,132,796.4516129279158
2173,2,133,790.0000000246877
2174,3,778,787.0012871541619
2180,3,784,785.3470438545494
2194,3,798,775.5102042336327
2198,0,135,753.3587786506267
2200,3,800,753.1328322304505
2201,3,801,750.00000015
2207,3,807,748.4394508365166
2209,1,134,747.5757576004276
2215,2,139,741.8796992727878
2217,3,809,739.1573731354943
2219,1,136,736.268656741083
2223,3,813,736.0939432885535
2233,0,145,730.7407407654033
2239,3,819,730.0123002713761
2245,1,142,725.2941176717189
2253,3,827,721.0012211488461
2263,2,149,709.4244604563071
2273,3,837,709.1898429519454
2283,3,847,694.7431303723763
2297,1,156,694.2253521373211
2299,3,849,680.6375444180329
2307,0,153,679.6551724384307
2311,3,853,677.8563016750883
2317,3,859,672.3329426990608
2325,3,867,664.1443540425086
2339,2,163,661.1409396219428
2340,3,868,653.4025376272075
2348,3,876,652.0737328603941
2354,0,159,643.5947712664475
2360,3,882,641.5525115560251
2366,3,888,633.7868482123123
2372,1,162,631.0256410502511
2378,3,894,626.1261262651262
2386,0,167,618.9308176346655
2388,3,896,618.5682328004424
2392,3,900,616.0714287094286
2406,3,914,611.1111112486111
2408,1,164,607.2839506418791
2414,2,169,603.4969325399298
2422,1,172,599.7560975855657
2430,3,922,594.0919038556624
2444,0,181,588.8023952341634
2454,3,932,584.5986986163117
2458,2,173,581.7159763559384
2460,3,934,572.9613735240579
2470,1,182,571.3953488617793
2478,3,942,570.663811696419
2484,2,179,568.0346821054923
2490,3,948,561.5711253976427
2496,3,954,554.8523208066056
2502,2,185,548.6592179016475
2508,3,960,548.2180294808547
2514,0,187,542.4861878698514
2520,3,966,541.6666667966667
2522,1,184,539.4505494750945
2526,3,970,535.1966874998504
2528,1,186,533.4782608941052
2529,3,971,530.9278351802965
2539,2,195,530.5405405650781
2553,3,985,529.8661175333624
2554,1,187,527.6344086266856
2556,0,189,524.7593583133025
2570,1,201,524.7593583133025
2574,0,193,519.1005291250566
2575,3,986,515.2284265228142
2589,3,1000,514.1987830882105
2595,0,199,508.1347150504242
2597,2,197,502.8205128450253
2605,2,205,497.614213222477
2609,0,203,492.51256283857276
2615,1,207,487.5124378354428
2621,0,209,482.6108374629162
2631,2,215,477.804878073268
2641,1,217,473.09178746409606
2647,0,215,468.46889954600863
2651,0,219,455.11627909422987
2661,2,225,455.11627909422987
2663,1,219,450.8294931120151
2673,0,229,446.62100459066244
2687,1,233,446.62100459066244
2693,2,231,434.444444468882
2699,0,235,426.68122273185116
2705,2,237,422.90043292485535
2713,1,241,419.18454938064065
2719,0,241,415.53191491802954
2721,2,239,411.94092829444963
2725,2,243,408.41004186540664
2726,0,242,404.9377593604971
2730,1,245,404.9377593604971
2731,0,243,403.2231405202628
2735,0,247,401.5226337692485
2745,2,253,401.5226337692485
2749,1,249,398.16326533050994
2763,0,261,394.85829961952425
2771,1,257,391.60642572718865
2775,2,257,385.25691702041496
2781,1,263,379.10505839011626
2782,2,258,379.10505839011626
2796,2,272,377.59689924916114
2797,0,262,373.14176247645474
2805,0,270,371.67938933732216
2811,1,269,370.2281369064718
2825,1,283,361.74721192023827
2831,0,276,360.3703703946954
2841,2,282,357.6470588478494
2843,0,278,352.3188406040202
2849,0,284,349.71223024013227
2851,2,284,344.60992910230914
2861,1,293,343.35689048365646
2869,0,292,342.1126760806281
2871,2,286,342.1126760806281
2877,2,292,339.6503496746347
2879,0,294,332.4657534489275
2880,2,293,332.4657534489275
2888,1,301,331.2969283519126
2890,2,295,331.2969283519126
2896,0,300,330.1360544460337
2897,2,296,328.9830508717201
2901,2,300,327.8378378620978
2905,0,304,323.33333335758334
2915,2,310,323.33333335758334
2919,1,305,322.22591364551
2925,0,310,318.9473684452927
2927,1,307,317.8688524832539
2941,1,321,315.7328990470338
2947,0,316,312.5806451855153
2953,2,316,312.5806451855153
2963,0,326,306.4556962267416
2964,2,317,306.4556962267416
2970,2,323,305.4574132734189
2972,1,323,301.5264797749763
2978,1,329,299.59752324400677
2986,2,331,299.59752324400677
3000,0,340,296.7484662818537
3002,1,331,293.95136780533255
3010,1,339,292.11480364955014
3016,2,337,292.11480364955014
3030,2,351,286.73590506866793
3044,1,353,284.9852507616156
3050,0,346,284.1176470829735
3058,0,354,279.0173410645974
3066,2,359,274.9002849244074
3072,1,359,273.28611900428746
3080,0,362,272.4858757303297
3086,1,365,268.5515320575287
3092,2,365,268.5515320575287
3098,0,368,266.2430939467469
3106,1,373,263.9726027638136
3116,2,375,263.9726027638136
3118,0,370,261.73913045886263
3120,0,372,260.2702702943453
3124,0,376,258.81720432514527
3128,1,377,258.0965147693758
3129,2,376,256.6666666907292
3130,0,377,255.9574468325706
3136,2,382,255.9574468325706
3144,0,385,255.25198941397792
3148,1,381,255.25198941397792
3149,1,382,252.4671916250974
3151,1,384,251.78010473608688
3155,2,386,251.78010473608688
3161,1,390,250.41666669070665
3167,0,391,249.74025976429726
3173,2,392,249.0673575369884
3179,1,396,246.41025643428142
3183,0,395,245.7544757273473
3189,2,398,245.10204084034655
3195,0,401,243.1645569860378
3205,1,406,242.52525254926255
3206,2,399,241.25628143104012
3220,2,413,240.62656644004255
3221,0,402,239.37655862748875
3229,0,410,238.75621892946768
3230,1,407,236.30541874319687
3234,1,411,235.70024572422818
3235,0,411,233.90243904836524
3245,0,421,233.30900245706255
3247,1,413,233.30900245706255
3251,1,417,232.13075062929437
3265,2,427,232.13075062929437
3279,1,431,229.80815350117575
3285,0,427,227.5296912353489
3291,0,433,224.19203749465854
3301,2,437,224.19203749465854
3309,1,439,222.0185615088413
3311,0,435,220.94688224100753
3315,0,439,219.88505749517685
3323,2,445,218.8329519689876
3331,0,447,217.7904328257248
3337,1,445,217.7904328257248
3343,1,451,214.71910114748297
3345,2,447,214.71910114748297
3359,0,461,213.713646556321
3365,2,453,213.713646556321
3366,1,452,211.72949004604544
3374,1,460,211.23893807696737
3375,2,454,210.7505519002472
3379,2,458,210.26431720448176
3380,2,459,208.3406113775668
3386,2,465,207.86492377112918
3390,1,464,207.39130437167606
3391,0,462,206.91973972015987
3392,0,463,206.45021647406145
3406,0,477,205.98272140613193
3408,1,466,205.51724140315036
3414,2,471,205.0537634646977
3415,1,467,204.5922747019466
3417,1,469,204.13276233646639
3425,1,477,203.21961622851833
3433,2,479,202.31422507690104
3434,0,478,199.6436058938285
3438,1,481,199.6436058938285
3439,0,479,199.2050209443071
3445,0,485,198.7682672471845
3459,2,493,198.7682672471845
3465,1,487,197.9002079240054
3467,0,487,196.1855670340968
3477,0,497,195.33880905869012
3479,1,489,195.33880905869012
3489,1,499,194.49897752888998
3497,2,501,192.8397566160596
3503,0,503,191.2072434845221
3509,1,505,190.4008016269589
3519,2,511,189.6007984269411
3523,0,507,188.80715708139658
3531,1,513,188.01980200393552
3533,0,509,187.23865880085285
3547,0,523,186.4636542476961
3553,2,517,185.69471626638398
3559,1,519,184.93177390285982
3560,2,518,183.42359770262436
3566,2,524,183.05019307389807
3574,1,527,182.6782273840108
3588,0,537,181.20458893382633
3596,2,532,180.83969468017855
3598,1,529,179.75332070679448
3602,1,533,179.03591684787412
3608,2,538,177.96992483570008
3609,1,534,177.61726081165997
3610,1,535,177.26591762666126
3620,1,545,176.91588787412977
3626,0,543,176.2197393160225
3632,2,544,175.8736059716104
3634,0,545,174.16206263874378
3635,2,545,173.82352943540468
3649,0,559,173.4862385557476
3655,1,551,173.4862385557476
3669,2,559,173.4862385557476
3679,1,561,171.48820329041015
3680,0,560,168.89087658889767
3690,2,569,168.89087658889767
3696,0,566,168.57142859502858
3704,1,569,168.2531194531875
3706,0,568,166.67844525326697
3716,0,578,166.05633805174904
3726,1,579,165.7469244524
3728,2,571,165.7469244524
3732,2,575,165.13134853495603
3742,2,585,163.91304350182335
3748,0,584,163.01038064639238
3762,1,593,162.71157169885475
3763,0,585,161.23287673586876
3767,0,589,160.94017096370845
3777,2,595,160.94017096370845
3791,0,603,159.7792869505224
3797,1,599,158.63406410446183
3798,2,596,158.0672269142688
3799,2,597,157.78523492283884
3801,2,599,157.5041876281976
3811,1,609,156.944908203803
3812,2,600,156.944908203803
3818,2,606,156.66666669016664
3824,0,609,155.83747929380758
3838,2,620,155.01650167365005
3844,0,615,154.20361250295204
3848,1,613,154.20361250295204
3854,1,619,153.13213705446262
3862,0,623,152.6016260397227
3876,1,633,151.55088855333943
3882,2,626,151.29032260409517
3886,0,627,150.5136436831536
3888,2,628,149.7444089691219
3898,0,637,149.48963319727622
3902,2,632,149.2356688132389
3906,2,636,148.22784812468578
3916,1,643,147.977883119784
3922,2,642,147.2327044259257
3936,0,651,146.98587129499305
3937,2,643,145.76323989878438
3941,1,647,145.52099535776264
3943,2,645,145.52099535776264
3953,2,655,145.03875971331
3955,1,649,144.5595054329652
3957,1,651,144.08320495404007
3961,0,655,143.60983105255835
3962,1,652,143.60983105255835
3970,1,660,143.37423315220434
3971,0,656,142.67175574855335
3977,2,661,142.67175574855335
3978,0,657,142.4390244136039
3982,0,661,142.20700154542752
3988,1,666,141.51515153850153
4002,0,675,141.2859304318195
4008,2,667,141.2859304318195
4010,1,668,140.15015017348514
4016,2,673,139.92503750459187
4017,1,669,139.7005988257252
4031,1,683,139.47683111450837
4037,2,679,138.58841012732935
4047,0,685,138.14814817146063
4055,2,687,137.2754050306663
4063,1,691,136.41288435711388
4073,0,695,135.98540148314152
4079,2,693,135.56040759242367
4089,1,701,134.7178003127081
4095,2,699,134.30014432341179
4101,0,701,133.8848921095934
4115,2,713,133.0615164753269
4125,0,711,132.6533523770278
4127,1,703,132.6533523770278
4133,1,709,132.2475106918058
4137,1,713,131.04372357752933
4151,0,725,130.64697611323658
4157,1,719,130.25245444116982
4163,2,719,130.25245444116982
4165,1,721,129.08205843766703
4179,2,733,129.08205843766703
4180,1,722,128.69625522430707
4188,1,730,128.5041551478487
4194,0,731,127.93103450594614
4196,1,732,126.98630139303803
4202,0,737,126.79890563192764
4216,1,746,126.61202188109348
4224,2,741,126.42564804499561
4234,0,747,125.68521033523348
4240,2,747,124.9527665548614
4248,1,754,124.04825739578915
4256,0,755,123.86880859073624
4270,2,761,123.86880859073624
4272,1,756,122.6259947180752
4282,0,765,122.45033114894031
4288,1,762,122.27513229824227
4289,2,762,121.40604470115268
4299,1,772,121.23359582361992
4305,2,768,121.23359582361992
4311,0,771,120.7189542714535
4319,2,776,120.20833335641332
4325,0,777,119.70168614499211
4326,1,773,119.53367877954668
4332,1,779,119.36610610327448
4338,2,782,118.86597940450332
4344,0,783,118.70012872318621
4350,1,785,118.36970477273157
4351,2,783,117.87723787470739
4357,0,789,117.71392084041159
4358,2,784,117.71392084041159
4368,2,794,117.55102043120327
4374,1,791,117.38853505488463
4380,0,795,116.74271231707058
4384,1,795,116.42225033907813
4390,2,800,115.94458440588653
4396,0,801,115.78616354502506
4402,1,801,115.78616354502506
4408,2,806,115.00000002300001
4422,0,815,114.84394509166167
4423,1,802,114.84394509166167
4424,1,803,114.68827932474062
4426,1,805,114.53300126832251
4427,1,806,114.22360250745953
4437,1,816,114.06947893117359
4445,2,814,114.06947893117359
4451,2,820,112.85012287308784
4453,0,817,112.69938652602998
4459,1,822,112.54901963080314
4465,0,823,112.399020830791
4469,2,824,111.95121953514513
4475,1,828,111.65450123948999
4477,0,825,111.5066828905002
4479,2,826,111.35922332391087
4493,0,839,111.21212123505873
4497,2,830,111.06537532559844
4498,1,829,110.7729468828334
4508,1,839,110.6272617840855
4509,2,831,110.48192773376837
4515,2,837,110.33694346455908
4517,2,839,109.47431304560762
4519,0,841,109.18951134590608
4525,1,845,109.18951134590608
4533,2,847,109.18951134590608
4537,0,845,108.90606423217217
4541,0,849,108.3431952891597
4547,1,851,108.3431952891597
4553,2,853,108.0637544502733
4561,0,857,107.78563017599882
4567,1,857,107.50881318385959
4568,2,854,107.23329427843609
4574,2,860,107.09601875822798
4582,0,865,106.68611437524957
4588,1,863,106.68611437524957
4596,2,868,106.27906979029187
4602,1,869,105.87485517927355
4608,0,871,105.60693643902246
4616,2,876,105.20737329471939
4624,1,877,105.07479864192992
4625,0,872,104.81056259457912
4627,0,874,104.67889910538881
4633,0,880,104.41647599535504
4637,2,880,104.15525116436251
4647,1,887,104.02508554162165
4649,0,882,103.63636365916365
4653,2,884,103.63636365916365
4654,0,883,103.37868483005124
4656,0,885,103.25028314850032
4660,2,888,103.12217196849136
4662,0,887,102.99435030527337
4668,0,893,102.73957161241046
4682,1,901,102.73957161241046
4692,2,898,102.61261263539261
4698,0,899,101.9820828895088
4700,2,900,101.358574633
4701,0,900,101.23470525078363
4711,0,910,101.11111113386113
4719,2,908,101.11111113386113
4721,1,903,100.98779136569979
4727,1,909,100.74197122982997
4733,2,914,100.13215861303837
4741,1,917,100.01100112283751
4749,0,918,99.89010991283487
4750,2,915,99.40919039470624
4756,2,921,99.28961750905128
4757,1,918,99.05125411212953
4759,0,920,98.93246189634336
4763,1,922,98.93246189634336
4777,0,934,98.69565219661305
4787,2,931,98.57763303029795
4795,1,930,98.45986987085115
4796,1,931,97.52688174310511
4802,1,937,97.41138562954684
4803,2,932,97.41138562954684
4805,2,934,97.2961373617258
4809,0,938,97.0663811789819
4811,2,936,97.0663811789819
4812,2,937,96.83760686026683
4826,1,951,96.72358593514416
4827,2,938,96.72358593514416
4841,0,952,96.60980812500041
4842,2,939,96.60980812500041
4848,2,945,96.49627265311044
4850,2,947,95.8201058427433
4858,2,955,95.59662093076344
4864,1,957,95.15247110569295
4872,0,960,95.04201682934269
4873,2,956,94.71204190742925
4881,2,964,94.60251048286105
4891,1,967,94.4932079640913
4905,0,974,94.16666668926668
4909,2,968,93.73443985661488
4911,1,969,93.41261636177587
4912,2,969,93.30578514654694
4916,1,973,93.19917442918225
4917,2,970,93.19917442918225
4923,2,976,93.09278352772964
4933,1,983,92.77492294137531
4934,0,975,92.6694045400188
4935,0,976,92.56410258666507
4939,0,980,92.45901641600261
4949,2,986,92.45901641600261
4955,0,986,92.04081634908063
4957,1,985,91.7293998190837
4961,1,989,91.52284266213142
4971,0,996,91.41987831868104
4981,2,996,91.41987831868104
4987,1,995,91.11223460291174
4993,1,1001,90.50251258532656
4994,0,997,90.40160644821282
5002,2,1004,90.40160644821282
5008,0,1003,90.30090273063188
5010,1,1003,89.9000999225974
5018,0,1011,89.70089733056827
5024,1,1009,89.70089733056827
5032,2,1012,89.60159364798801
5038,1,1015,89.10802777272528
5039,0,1012,88.91196837064264
5045,0,1018,88.81422927148186
5051,2,1018,88.81422927148186
5059,1,1023,88.52216751014723
5073,0,1032,88.23182713443927
5074,2,1019,88.23182713443927
5088,2,1033,88.13542691155946
5090,1,1025,87.75171067737895
5092,1,1027,87.56097563219359
5106,1,1041,87.37098346936531
5120,0,1046,86.89922482862154
5121,2,1034,86.8054211259993
5122,2,1035,86.7117988618734
5123,2,1036,86.6183575103352
5137,2,1050,86.52509654750654
5143,1,1047,86.06147936917945
5144,0,1047,85.6022944774519
5152,0,1055,85.51098378551525
5156,1,1051,85.51098378551525
5162,2,1056,85.23809526047025
5170,1,1059,85.14747861418984
5178,0,1063,84.7867298801824
5188,2,1066,84.6969697193297
5192,1,1063,84.42870634907581
5202,0,1073,84.0733772565852
5208,1,1069,84.0733772565852
5209,2,1067,83.80863041633125
5219,2,1077,83.72071229974581
5220,1,1070,83.54536952653704
5228,1,1078,83.45794394755865
5234,0,1079,83.19664494310037
5240,2,1083,82.85051070011622
5250,1,1088,82.76437850096919
5252,0,1081,82.67840595372049
5260,0,1089,82.50693804264904
5268,2,1091,82.33610343872833
5274,1,1094,81.91176472816235
5288,0,1103,81.82736457691479
5290,2,1093,81.65902843657132
5291,2,1094,81.49130834797656
5297,1,1100,81.40767826723759
5311,2,1108,81.40767826723759
5321,1,1110,80.90909093134091
5327,0,1109,80.66183139123618
5335,2,1116,80.25270760345744
5339,0,1113,80.17132554071262
5341,1,1112,80.09009011231508
5347,1,1118,79.92805757617683
5361,0,1127,79.84725968079792
5367,2,1122,79.6057347892351
5381,1,1132,79.44543830485259
5387,2,1128,79.12655973699
5395,0,1135,78.73114465394823
5399,2,1132,78.65248229168354
5407,1,1140,78.33922263701098
5421,2,1146,78.33922263701098
5429,0,1143,78.10572689440919
5435,1,1146,77.71929826776403
5436,0,1144,77.48906388915913
5442,0,1150,77.4125874347274
5448,1,1152,77.26003492614896
5462,2,1160,77.26003492614896
5466,0,1154,76.95652176125543
5472,1,1158,76.80555557767555
5480,0,1162,76.65511267376145
5494,1,1172,76.35578585975611
5500,2,1166,76.20689657382414
5504,0,1166,76.05851981555456
5512,0,1174,75.76329333254813
5526,2,1180,75.76329333254813
5532,1,1178,75.32423210398126
5546,0,1188,75.17887566090657
5548,1,1180,74.88964348555245
5554,1,1186,74.7457627339144
5555,2,1181,74.7457627339144
5569,2,1195,74.67400510248781
5571,1,1188,74.31703206250718
5577,0,1194,74.17508419711417
5591,1,1202,74.17508419711417
5597,0,1200,73.75209382436006
5603,2,1201,73.68200839021334
5607,0,1204,73.33333335533334
5609,2,1203,73.26394673307162
5615,1,1208,73.19467556276041
5629,2,1217,73.12551955648959
5635,0,1210,73.05647842730562
5643,1,1216,72.78145697562238
5649,0,1216,72.64462812114856
5655,0,1222,72.23684212722317
5661,1,1222,72.23684212722317
5675,2,1231,72.16926871546612
5676,0,1223,71.83306057840981
5678,1,1224,71.83306057840981
5684,0,1229,71.76614883633334
5698,1,1238,71.69934642716876
5712,0,1243,71.36696503413255
5722,2,1241,71.23476850283232
5732,1,1248,70.77544428684845
5738,2,1247,70.58017729828751
5742,0,1247,70.45052295029153
5743,0,1248,70.19246193046308
5747,2,1251,70.19246193046308
5749,0,1250,70.12820515008514
5759,1,1258,70.12820515008514
5760,0,1251,70.00000002187501
5761,0,1252,69.93605118094524
5767,2,1257,69.93605118094524
5771,0,1256,69.87220449471346
5781,0,1266,69.61783441676445
5789,2,1265,69.55449485081533
5793,1,1262,69.49125598369919
5799,1,1268,69.23930271598128
5807,2,1273,69.05138342104699
5813,0,1272,68.98894157001826
5827,1,1282,68.86435333413283
5841,0,1286,68.61635222307785
5843,2,1275,68.55459546565096
5851,2,1283,68.43137257083211
5852,1,1283,68.0031201466
5854,1,1285,67.9423227030084
5855,2,1284,67.9423227030084
5869,2,1298,67.8816199594847
5877,1,1293,67.82101169493924
5881,0,1290,67.76049768897006
5882,0,1291,67.51937986673624
5890,0,1299,67.45933387150139
5894,1,1297,67.33952051674042
5902,1,1305,67.10100233478757
5903,2,1299,67.04160248708627
5909,0,1305,66.98229409411586
5919,2,1309,66.98229409411586
5929,0,1315,66.62835251215895
5935,1,1311,66.62835251215895
5939,2,1313,66.39419406298036
5941,1,1313,66.27765067008254
5943,1,1315,66.16146232179366
5953,2,1323,66.16146232179366
5967,0,1329,66.04562739813835
5973,1,1321,66.04562739813835
5979,1,1327,65.7002271223788
5985,2,1329,65.58578989319666
5986,1,1328,65.35795028543532
5988,1,1330,65.30120484095711
5996,0,1337,65.24454479218164
6010,2,1343,65.24454479218164
6016,1,1336,65.18796994648703
6017,1,1337,64.85029942285762
6018,0,1338,64.79431565366947
6026,1,1345,64.79431565366947
6040,0,1352,64.73841556724544
6044,2,1347,64.46016383400288
6054,1,1355,64.34944240081964
6060,2,1353,64.23904976179583
6074,0,1366,63.96449706304011
6082,2,1361,63.90983002900848
6096,1,1369,63.800738028992576
6106,2,1371,63.47538576737267
6112,0,1372,63.20644218849569
6126,1,1383,63.046019013542434
6140,2,1385,62.93946026956666
6146,0,1378,62.88629739766329
6156,0,1388,62.5689405150238
6162,1,1389,62.30657992031329
6170,2,1393,62.20216608651945
6172,0,1390,62.046109531616445
6174,1,1391,61.99424048229064
6184,0,1400,61.94244606469047
6185,1,1392,61.89072611785606
6189,1,1396,61.83908048129011
6195,2,1399,61.78750899495612
6203,1,1404,61.633237843859575
6205,2,1401,61.47962832743531
6219,0,1414,61.42857145007143
6225,2,1407,61.37758745904212
6231,1,1410,61.22507124656123
6245,2,1421,61.073205423046105
6255,1,1420,60.92198583707784
6261,0,1420,60.721357871535716
6271,0,1430,60.4225352327176
6273,1,1422,60.4225352327176
6279,2,1427,60.372976798365166
6285,1,1428,60.323488066452036
6286,2,1428,60.077084814705096
6292,1,1434,60.02801122591179
6298,2,1434,60.02801122591179
6304,0,1436,59.930069951494936
6314,1,1444,59.73500699491569
6320,2,1440,59.73500699491569
6321,0,1437,59.637883029766556
6327,0,1443,59.58942242920152
6333,2,1446,59.44444446584445
6343,0,1453,59.3000693214618
6347,1,1448,59.25207758371687
6353,2,1452,59.15629324406826
6355,1,1450,59.06077350204298
6361,1,1456,58.96551726275431
6362,2,1453,58.87052343734796
6376,0,1467,58.82312459122298
6377,2,1454,58.82312459122298
6385,2,1462,58.77579094296059
6391,1,1462,58.68131870267869
6405,1,1476,58.39945282572256
6406,2,1463,58.39945282572256
6407,2,1464,58.35269995298981
6413,2,1470,58.30601095030175
6415,0,1469,58.16632585636998
6417,0,1471,58.07351942228052
6419,2,1472,58.027210905678736
6420,0,1472,57.98096535103019
6421,0,1473,57.93478263001565
6422,2,1473,57.93478263001565
6430,0,1481,57.88866261466441
6444,2,1487,57.88866261466441
6445,1,1477,57.75067752808507
6451,1,1483,57.70480706260743
6465,0,1495,57.5219446533029
6473,1,1491,57.43088336586432
6481,2,1495,57.249495650065285
6489,1,1499,57.06908117486069
6495,0,1501,56.88963212828592
6501,2,1501,56.88963212828592
6515,1,1513,56.711140781759504
6517,0,1503,56.62225185335943
6521,2,1505,56.62225185335943
6531,0,1513,56.53359948897371
6537,2,1511,56.445182745489994
6541,2,1515,56.18133688422713
6543,0,1515,56.09385329286324
6551,1,1521,56.09385329286324
6557,0,1521,56.006600681278506
6563,2,1521,56.006600681278506
6567,0,1525,55.74621961357094
6569,1,1523,55.74621961357094
6575,2,1527,55.74621961357094
6585,1,1533,55.659881833405244
6587,0,1527,55.573770512990784
6593,0,1533,55.48788476250536
6599,2,1533,55.48788476250536
6605,0,1539,55.23157210205465
6613,1,1541,55.23157210205465
6619,2,1539,55.23157210205465
6620,0,1540,54.977257980866604
6624,2,1543,54.977257980866604
6630,0,1546,54.93506495621493
6640,1,1551,54.892926692140364
6641,2,1544,54.80881401984632
6643,2,1546,54.76683939937834
6649,0,1552,54.68305306123851
6659,2,1556,54.68305306123851
6665,1,1557,54.47453258076145
6669,0,1556,54.43298971184165
6675,0,1562,54.26735220619998
6681,2,1562,54.26735220619998
6687,1,1563,54.22607580787694
6693,0,1568,54.02048657679283
6707,2,1576,54.02048657679283
6711,1,1567,53.979526572596015
6719,1,1575,53.81620933824905
6725,0,1574,53.775510225161625
6739,0,1588,53.532401545842646
6753,1,1589,53.492063513126
6759,2,1582,53.4517766708062
6763,2,1586,53.211125179072816
6771,2,1594,53.0517024169997
6785,0,1602,52.97229221246577
6795,1,1599,52.93266207263228
6801,2,1600,52.73525723556959
6807,1,1605,52.539086950333335
6813,2,1606,52.500000021000005
6817,0,1606,52.42197255532708
6831,1,1619,52.30529597114327
6839,0,1614,52.266500643650005
6841,2,1608,52.266500643650005
6845,2,1612,52.189054747348166
6846,2,1613,52.0347394750643
6852,2,1619,51.996280244154114
6856,0,1618,51.95786867028346
6862,0,1624,51.80469717793894
6866,1,1623,51.76652256573323
6870,2,1623,51.76652256573323
6880,1,1633,51.61429453727029
6886,2,1629,51.61429453727029
6894,0,1632,51.57635470074297
6896,2,1631,51.38735422596126
6897,2,1632,51.31207850038295
6898,0,1633,51.274509824841566
6906,2,1640,51.274509824841566
6912,0,1639,51.236987161150196
6918,1,1639,51.236987161150196
6920,0,1641,51.01281271156755
6926,1,1645,51.01281271156755
6927,2,1641,50.97560977699756
6928,0,1642,50.938452184212544
6936,2,1649,50.938452184212544
6942,0,1648,50.901339850371244
6950,1,1653,50.790273577118505
6954,0,1652,50.679611671365436
6958,2,1653,50.64281384743905
6964,0,1658,50.53268767220172
6965,1,1654,50.496067776463384
6969,2,1657,50.496067776463384
6970,1,1655,50.459492161131024
6976,1,1661,50.42296074593803
6982,2,1663,50.3500301958726
6983,0,1659,50.31363090143402
6993,0,1669,50.27727548800139
6994,1,1662,50.204695987132865
7004,1,1672,50.16847174166329
7008,2,1667,50.13229106113113
7018,2,1677,49.98800242035259
7024,0,1675,49.91611745641767
7028,1,1676,49.808612461011386
7034,0,1681,49.70149255812594
7040,1,1682,49.66587114252838
7046,2,1683,49.63029220923922
7054,0,1689,49.48839978284389
7058,1,1686,49.45303212543233
7064,2,1689,49.41770649732251
7066,1,1688,49.311981040951075
7070,1,1692,49.241706181917436
7084,0,1703,49.20663116346548
7092,2,1697,49.20663116346548
7102,1,1702,49.101654867105694
7112,2,1707,48.92751917220122
7126,1,1716,48.754406601238536
7132,0,1709,48.71990606889282
7146,2,1721,48.58230816367333
7156,0,1719,48.513750752149384
7170,1,1730,48.27505829576827
7172,0,1721,48.173356623378474
7174,0,1723,48.105752490191975
7184,2,1731,48.105752490191975
7190,0,1729,48.03830530217828
7200,0,1739,47.836899962840604
7206,1,1736,47.803468228767485
7216,2,1741,47.77007512177013
7224,1,1744,47.6036866566047
7225,0,1740,47.50431284411426
7235,0,1750,47.4712643884661
7239,2,1745,47.43825389772962
7253,1,1758,47.339449561924404
7254,2,1746,47.30659027851716
7255,2,1747,47.273768634609795
7259,2,1751,47.24098456556668
7261,0,1752,47.14285716348215
7267,2,1757,47.11022275049114
7275,0,1760,47.07762559139625
7285,2,1767,46.915196378034935
7291,1,1764,46.882821408545844
7295,0,1764,46.81818183878183
7297,0,1766,46.689342424218125
7303,1,1770,46.689342424218125
7309,0,1772,46.625141583438904
7319,2,1777,46.59309566291414
7321,1,1772,46.497175161817935
7323,0,1774,46.4334085984481
7329,1,1778,46.4334085984481
7333,0,1778,46.369785815378975
7341,2,1785,46.274620166871514
7347,0,1784,46.242969649351394
7353,1,1784,46.242969649351394
7357,0,1788,46.05381167973282
7367,1,1794,46.05381167973282
7377,2,1795,46.02240898412294
7387,0,1798,45.92841165363962
7393,1,1800,45.741360109701176
7399,2,1801,45.710306427197736
7401,0,1800,45.61735263452057
7407,0,1806,45.55555557605556
7421,1,1814,45.55555557605556
7422,2,1802,45.524708515777895
7430,2,1810,45.49389569197114
7436,0,1812,45.370985624028734
7450,2,1824,45.24861880500538
7451,0,1813,45.18763798956492
7461,0,1823,45.157198034808374
7467,1,1820,45.126791641192675
7473,1,1826,44.94505496550495
7475,0,1825,44.85463523711831
7483,2,1832,44.82456142394878
7497,0,1839,44.79452056838271
7505,1,1834,44.764512616272896
7511,2,1838,44.58515285884794
7519,1,1842,44.52562706512601
7523,2,1842,44.4069641118087
7531,0,1847,44.37737903073421
7537,1,1848,44.288816524195205
7543,2,1848,44.288816524195205
7545,0,1849,44.141851671708984
7555,1,1858,44.112554132934115
7565,2,1858,44.112554132934115
7571,0,1855,44.08328828430394
7577,0,1861,43.908355815510745
7578,1,1859,43.82131326039806
7584,2,1864,43.82131326039806
7588,1,1863,43.792361505021674
7592,0,1865,43.73455133684401
7598,1,1869,43.676865291410664
7599,2,1865,43.6480686898679
7607,0,1873,43.619302969399165
7613,2,1871,43.619302969399165
7617,1,1873,43.50454790689785
7625,2,1879,43.44735437628188
7629,0,1877,43.39028298881723
7635,1,1879,43.39028298881723
7641,0,1883,43.27650508157548
7647,1,1885,43.219797785071
7648,2,1880,43.219797785071
7662,2,1894,43.19148938200213
7664,0,1885,43.106744576851185
7672,0,1893,43.05039789827159
7676,1,1889,43.05039789827159
7680,1,1893,42.93806248719122
7688,0,1901,42.826201816358356
7696,1,1901,42.826201816358356
7702,2,1900,42.79831047433047
7710,2,1908,42.631578967618424
7714,0,1905,42.603892708306425
7722,1,1909,42.603892708306425
7726,0,1909,42.493438340447476
7730,2,1912,42.41090148773524
7738,0,1917,42.383446851028964
7744,1,1915,42.383446851028964
7750,2,1918,42.30125525034552
7756,1,1921,42.21932116903757
7764,0,1925,42.16484091744277
7765,2,1919,42.13764339872429
7769,2,1923,42.11047422551778
7777,1,1929,42.056220738573344
7783,2,1929,42.002080103395826
7791,0,1933,41.94805196823945
7795,1,1933,41.84033179830088
7801,2,1935,41.84033179830088
7809,0,1941,41.733057443861235
7815,1,1939,41.733057443861235
7816,2,1936,41.67958658346999
7817,2,1937,41.65289258214347
7825,2,1945,41.626226143027914
7833,1,1947,41.572975780853895
7837,0,1945,41.519835156675065
7851,0,1959,41.41388176820948
7857,2,1951,41.41388176820948
7858,1,1948,41.36106833035335
7868,1,1958,41.3347022788569
7878,2,1961,41.255766293828295
7884,1,1964,41.07252300274034
7886,0,1961,41.046452291669624
7887,0,1962,40.99439063712963
7893,2,1967,40.99439063712963
7895,0,1964,40.9683996123478
7896,0,1965,40.91649696510018
7900,1,1968,40.91649696510018
7906,0,1971,40.89058526181778
7907,2,1968,40.83884089451056
7909,1,1970,40.8130081501613
7915,2,1974,40.8130081501613
7921,1,1976,40.76142133987195
7922,0,1972,40.73566719409584
7923,0,1973,40.70993916814302
7927,0,1977,40.68423722229761
7929,2,1976,40.65856131692417
7935,1,1982,40.60728746945271
7941,2,1982,40.60728746945271
7945,0,1981,40.581689448484404
7955,0,1991,40.47955579995664
7961,1,1988,40.45408680107427
7965,2,1986,40.45408680107427
7969,2,1990,40.35246729093128
7971,1,1990,40.301810885221144
7972,1,1991,40.25125630143203
7980,2,1998,40.25125630143203
7988,0,1999,40.226017096868304
7996,1,1999,40.226017096868304
7998,2,2000,40.05005007005506
8004,0,2005,40.02501252625563
8010,1,2005,40.02501252625563
8018,2,2008,40.00000002
8026,0,2013,39.87531174068576
8027,1,2006,39.87531174068576
8033,1,2012,39.850448674022886
8043,2,2018,39.800796832729
8053,1,2022,39.701789284383516
8067,0,2027,39.67709887739423
8068,2,2019,39.55401389507889
8072,2,2023,39.529470054623125
8076,1,2026,39.455984194030066
8090,2,2037,39.431537340753174
8104,1,2040,39.35834157965859
8110,0,2033,39.333991139814096
8114,0,2037,39.18839155951415
8128,0,2051,39.091801689028756
8134,2,2043,39.091801689028756
8140,1,2046,39.01960786303726
8144,2,2047,38.94762606002955
8150,1,2052,38.87585534735323
8158,2,2055,38.85197852501195
8166,0,2059,38.756704066678935
8174,1,2060,38.732943489655575
8180,2,2061,38.66180050648051
8181,0,2060,38.56726568279568
8187,0,2066,38.54368934023835
8195,1,2068,38.54368934023835
8201,2,2067,38.5201358762279
8205,0,2070,38.402710571625896
8207,2,2069,38.37929368214503
8208,1,2069,38.3558994395592
8216,1,2077,38.33252781103098
8226,2,2079,38.33252781103098
8236,0,2080,38.30917876378636
8246,1,2087,38.14636496925381
8254,2,2087,38.1000481198506
8264,0,2090,38.07692309672308
8272,1,2095,37.915668443357006
8278,2,2093,37.915668443357006
8279,0,2091,37.846889971928114
8287,0,2099,37.82400767161372
8293,2,2099,37.77830866764136
8299,1,2101,37.7326969171372
8305,0,2105,37.64173417887589
8307,2,2101,37.64173417887589
8315,1,2109,37.59638269466421
8317,2,2103,37.59638269466421
8319,2,2105,37.551117471002605
8333,0,2119,37.50593826201779
8339,2,2111,37.50593826201779
8345,1,2115,37.415836909248604
8346,2,2112,37.370914278367685
8360,2,2126,37.34848486820484
8364,1,2119,37.28132389678106
8365,0,2120,37.19207175165153
8371,1,2125,37.19207175165153
8377,0,2126,37.16981134045472
8378,1,2126,37.05882354909926
8379,0,2127,37.03668863680635
8393,1,2140,37.03668863680635
8403,2,2136,37.03668863680635
8405,0,2129,37.014574537783105
8409,0,2133,36.97040866223269
8415,0,2139,36.882325383005515
8421,2,2142,36.81647942040906
8425,0,2143,36.75081815896994
8431,1,2146,36.72897198226682
8437,2,2148,36.68534082263287
8438,0,2144,36.663555782591644
8444,0,2150,36.64179106441612
8454,1,2156,36.598322480026425
8456,2,2150,36.554934842721245
8462,0,2156,36.51162792660174
8476,2,2164,36.51162792660174
8480,0,2160,36.38218925894209
8484,1,2160,36.38218925894209
8492,0,2168,36.2962963158963
8496,1,2164,36.2962963158963
8502,1,2170,36.21072090683584
8516,2,2178,36.21072090683584
8522,0,2174,36.125461274192546
8526,1,2174,36.08294932833076
8528,0,2176,35.998160093162056
8532,1,2178,35.998160093162056
8536,0,2180,35.95588237250117
8542,1,2184,35.913682296873645
8546,2,2182,35.913682296873645
8548,0,2182,35.87155965257753
8550,0,2184,35.8295142266944
8552,2,2184,35.8295142266944
8556,0,2188,35.787545807085785
8562,1,2190,35.787545807085785
8576,2,2198,35.787545807085785
8582,0,2194,35.703839142016285
8592,1,2200,35.66210047614601
8598,0,2200,35.57885143245939
8602,2,2202,35.49590538802183
8608,0,2206,35.45454547404546
8618,1,2210,35.45454547404546
8619,2,2203,35.41326069161126
8627,2,2211,35.39264641077712
8629,0,2208,35.33091570398182
8637,0,2216,35.28985509194377
8638,1,2211,35.24886879775555
8640,1,2213,35.22840345683117
8646,2,2217,35.22840345683117
8652,1,2219,35.187528261672654
8654,0,2218,35.12635381007371
8660,2,2223,35.10599911733752
8670,0,2228,35.08566277869756
8676,1,2225,35.06534476933984
8684,2,2231,34.984255530013805
8690,1,2231,34.9438202441566
8700,0,2238,34.883303430561064
8710,1,2241,34.822949369489734
8716,2,2237,34.822949369489734
8722,2,2243,34.702726885746344
8732,0,2248,34.68275247695639
8740,1,2249,34.622936208598745
8744,2,2247,34.58314758961096
8746,2,2249,34.503782840922334
8756,0,2258,34.483985784504554
8760,1,2253,34.4642063332948
8766,2,2255,34.4642063332948
8770,1,2257,34.38526411168884
8772,2,2257,34.34589802379709
8786,1,2271,34.30660170300836
8792,2,2263,34.30660170300836
8806,0,2272,34.28697964734437
8807,2,2264,34.18912949349186
8815,2,2272,34.169611326760496
8829,1,2285,34.03346545305213
8839,0,2282,34.014084526362254
8841,2,2274,34.014084526362254
8847,2,2280,33.97537380999222
8861,2,2294,33.859649142107024
8863,0,2284,33.821209484676245
8869,0,2290,33.782837147135886
8879,1,2295,33.763676168084004
8889,0,2300,33.66812229001736
8893,2,2298,33.59197909511504
8901,1,2303,33.57298476871784
8902,2,2299,33.51610097660922
8908,2,2305,33.497172703028056
8918,0,2310,33.478260888815214
8924,1,2309,33.42162398797893
8930,2,2311,33.383947958499974
8931,1,2310,33.30879170393949
8937,0,2316,33.29004330926829
8947,1,2320,33.29004330926829
8948,2,2312,33.271311139949454
8952,2,2316,33.25259517492935
8966,0,2330,33.17789293803556
8968,2,2318,33.17789293803556
8974,2,2324,33.140638500654525
8982,1,2328,33.10344829506207
8983,2,2325,33.02925991591978
8989,2,2331,33.01075270735954
8995,1,2334,32.9553264796611
8999,0,2334,32.91845495479732
9013,2,2345,32.90004291921541
9019,0,2340,32.84490147589165
9029,1,2344,32.84490147589165
9033,0,2344,32.73504275419273
9043,0,2354,32.66211606009563
9051,1,2352,32.66211606009563
9065,2,2359,32.64392326007567
9079,1,2366,32.517006821841086
9083,0,2358,32.48088362149393
9091,0,2366,32.40882105388024
9105,2,2373,32.390843596889695
9113,0,2374,32.2654268998965
9114,1,2367,32.2654268998965
9120,1,2373,32.24757078376353
9126,1,2379,32.14075012441938
9127,2,2374,32.14075012441938
9137,0,2384,32.12299917660501
9145,2,2382,32.12299917660501
9151,1,2385,32.03446828302896
9157,2,2388,31.981528146668847
9163,0,2390,31.94630874387222
9177,1,2399,31.9287211930417
9181,2,2392,31.876046920202533
9185,0,2394,31.84100420312542
9199,2,2406,31.806020085909637
9200,0,2395,31.771094421688346
9214,0,2409,31.75365346368891
9215,1,2400,31.68403503359191
9223,1,2408,31.666666685666673
9229,2,2412,31.562759786233542
9243,1,2422,31.528239221637804
9245,0,2411,31.511000434087507
9253,0,2419,31.4765657593292
9254,2,2413,31.459369836548774
9258,2,2417,31.44218816650169
9264,2,2423,31.373603659834615
9268,0,2423,31.33939646376441
9272,1,2426,31.28819159615392
9276,0,2427,31.271151484068376
9278,2,2425,31.271151484068376
9282,2,2429,31.237113420999357
9284,1,2428,31.220115435258162
9294,0,2437,31.20313145692179
9304,1,2438,31.186161468682883
9314,2,2439,31.169205453262617
9322,0,2445,31.034058287270238
9324,1,2440,31.017227254343887
9332,2,2447,31.000410023002544
9342,1,2450,30.983606576277044
9344,0,2447,30.89979551991
9352,0,2455,30.86636699885798
9358,2,2453,30.86636699885798
9360,1,2452,30.81632654948725
9366,1,2458,30.783034276618775
9368,2,2455,30.766408498280466
9376,0,2463,30.733197574870648
9382,2,2461,30.733197574870648
9386,1,2462,30.683482524957522
9392,2,2467,30.63388868199256
9398,1,2468,30.617384259299918
9399,0,2464,30.600893238493338
9400,0,2465,30.584415603255582
9414,0,2479,30.567951337295924
9420,2,2473,30.535062848179884
9421,1,2469,30.51863859257392
9429,1,2477,30.502227641346742
9435,2,2479,30.43671655743457
9445,1,2487,30.371417055545493
9453,0,2487,30.338846327798063
9455,2,2481,30.338846327798063
9456,2,2482,30.30632811230818
9466,2,2492,30.290088656990005
9467,0,2488,30.20908727250184
9473,1,2493,30.20908727250184
9479,0,2494,30.192926063796076
9487,2,2500,30.128410933697776
9493,1,2499,30.112314499313026
9497,0,2498,30.09623097305529
9499,0,2500,30.032025639251398
9500,1,2500,30.01600642131353
9508,0,2508,30.00000001875
9514,1,2506,30.00000001875
9518,2,2504,30.00000001875
9524,2,2510,29.936102255161728
9528,1,2510,29.904229867098923
9532,0,2512,29.872408312190924
9538,1,2516,29.840637468924207
9542,2,2514,29.840637468924207
9548,0,2518,29.808917216172233
9558,2,2524,29.77724743319392
9568,1,2526,29.745627999632095
9572,0,2522,29.71405879551199
9578,0,2528,29.651070597600633
9580,2,2526,29.61965136575814
9586,1,2532,29.58828188725191
9594,2,2534,29.58828188725191
9604,0,2538,29.556962043996453
9618,1,2546,29.49447079276163
9620,2,2536,29.463299150472416
9628,2,2544,29.432176674811416
9638,0,2548,29.401103249545464
9642,2,2548,29.308176119268936
9646,1,2550,29.277297740551735
9647,0,2549,29.246467836526385
9648,2,2549,29.246467836526385
9654,0,2555,29.231071026866022
9656,2,2551,29.231071026866022
9664,1,2558,29.21568629313481
9670,2,2557,29.20031362113132
9680,0,2565,29.138943267144786
9681,2,2558,29.108330092913327
9689,1,2566,29.093041457228924
9699,2,2568,29.093041457228924
9705,0,2571,28.986354794415963
9706,1,2567,28.971161359192948
9716,1,2577,28.95597976147304
9722,2,2574,28.940809987427357
9728,0,2577,28.895371469369852
9742,2,2588,28.85003886860385
9748,0,2583,28.804811815220283
9750,1,2579,28.804811815220283
9756,1,2585,28.7747189018406
9766,0,2593,28.71467287955683
9774,1,2593,28.684719554320864
9780,2,2594,28.639876370925677
9786,0,2599,28.565368317784756
9794,1,2601,28.565368317784756
9808,2,2608,28.55050117503003
9814,0,2605,28.47633707121508
9816,1,2603,28.44675126801691
9817,1,2604,28.417210928980396
9818,1,2605,28.402457775786466
9824,0,2611,28.387715949389612
9828,1,2609,28.387715949389612
9834,2,2614,28.34355830068859
9835,1,2610,28.328861651287006
9837,1,2612,28.31417626368573
9845,0,2619,28.29950212494512
9851,1,2618,28.284839222145347
9865,2,2628,28.255547072787873
9873,1,2626,28.197097039081438
9881,0,2627,28.182512427769034
9895,1,2640,28.080731168473083
9897,0,2629,28.06623526776634
9903,2,2634,28.051750398947505
9909,0,2635,28.03727654942788
9915,2,2640,27.965072152052056
9923,0,2643,27.950664155034886
9933,1,2650,27.87878789718788
9937,2,2644,27.87878789718788
9943,0,2649,27.835792678248723
9945,2,2646,27.821482620508004
9955,2,2656,27.792894954137083
9959,0,2653,27.750094393613438
9960,1,2651,27.735849074978773
9968,1,2659,27.72161450347246
9972,0,2657,27.69317755323369
9982,2,2666,27.65060242799855
9988,0,2663,27.63643208459762
9998,1,2669,27.608123372997103
10008,0,2673,27.551633514399576
