Total CPU core usage (Jobs),User ID,User CPU Core usage,Computed Priority start of Job
6,2,6,1600000.0
12,4,6,1550000.0
16,3,4,1500000.0
18,1,2,1400000.0
32,5,14,1300000.0
40,0,8,1250000.0
41,1,3,699996.5000003501
55,1,17,466663.1666670167
59,3,8,374987.500000375
61,2,8,266656.66666706663
71,4,16,258324.215686662
73,2,10,199990.00000039997
87,3,22,187487.50000037497
89,2,12,159990.0000004
97,0,16,156187.5000003124
111,2,26,133323.3333337333
113,4,18,96865.88235332863
114,5,15,92840.8928574678
120,5,21,86650.41666699162
126,4,24,86101.99346443974
127,1,18,82349.44117682059
137,0,26,78062.50000031225
143,1,24,77774.27777812775
149,3,28,68169.31818219312
159,4,34,64574.215686661955
163,5,25,61888.511905086816
171,2,34,61528.46153886147
173,1,26,58329.83333368332
187,1,40,53842.653846503825
191,3,32,53558.92857180348
193,5,27,51983.75000032489
197,5,31,48131.89814847304
211,0,40,48014.42307723517
221,2,44,47048.823529811685
235,3,46,46862.50000037491
237,4,36,45579.11764744625
245,4,44,43046.43790888415
259,5,45,41919.23387129262
265,2,50,36353.636364036254
275,4,54,35218.155080601304
277,1,42,34996.500000349966
283,1,48,33329.8333336833
291,3,54,32596.195652548773
301,2,60,31990.000000399876
307,0,46,31187.500000311877
315,1,56,29163.166667016623
319,5,49,28872.638889213704
323,4,58,28694.586057032255
337,3,68,27765.27777815261
345,0,54,27111.413043790042
351,4,64,26715.020284363025
357,2,66,26656.66666706652
361,5,53,26514.362245222757
365,1,60,24996.500000349948
371,5,59,24512.05188711724
381,2,76,24232.42424282408
395,4,78,24209.63235332853
403,1,68,23329.833333683284
407,0,58,23085.6481484598
411,3,72,22046.32352978655
413,5,61,22017.648305409508
427,0,72,21489.22413824263
441,5,75,21295.22541016082
442,2,77,21042.63157934718
448,3,78,20820.83333370811
462,2,91,20769.220779620584
468,1,74,20584.735294467588
482,4,92,19862.67722512337
490,3,86,19218.269231143986
500,1,84,18915.418919268854
504,2,95,17572.417582817357
510,3,92,17429.36046549101
516,5,81,17317.08333365803
524,0,80,17298.611111422484
526,4,94,16838.70844028499
532,2,101,16832.10526355766
540,1,92,16663.16666701659
544,4,98,16480.24405545612
546,3,94,16291.847826461672
552,5,87,16033.132716374053
558,3,100,15944.946808885345
566,2,109,15831.58415881559
574,4,106,15807.208883940697
576,0,82,15562.50000031125
582,1,98,15213.891304697749
588,0,88,15181.402439335609
589,3,101,14987.50000037469
603,5,101,14926.27873595683
609,3,107,14838.985148889537
613,2,113,14668.899082968537
617,4,110,14613.523862762398
627,1,108,14282.214286064198
633,2,119,14149.292035797944
639,0,94,14142.04545485658
653,4,124,14081.791444237515
659,3,113,14006.191589159715
673,2,133,13435.378151660205
681,3,121,13261.836283560488
687,0,100,13235.372340736561
701,1,122,12959.46296331287
709,5,109,12855.03712903746
710,4,125,12490.882353328392
724,0,114,12437.500000310938
726,4,127,12390.882353328392
740,3,135,12384.194215250654
746,4,133,12195.606762777206
760,2,147,12020.075188369592
766,5,115,11910.355504911713
780,4,147,11645.017691674238
786,1,128,11471.909836415467
787,5,116,11288.09782641149
797,5,126,11190.646552048667
811,3,149,11098.61111148569
817,1,134,10934.000000349888
823,0,120,10902.412281012472
824,2,148,10874.353741896231
834,2,158,10800.81081121044
840,4,153,10535.100040403171
850,1,144,10444.261194379735
864,0,134,10354.166666977293
874,5,136,10301.210317784806
880,4,159,10121.601307576695
890,2,168,10116.582278880614
896,3,155,10054.614094334265
906,4,169,9739.310026284289
916,1,154,9718.722222572096
918,3,157,9664.919355213224
932,5,150,9542.573529736213
938,3,163,9541.640127763045
940,2,170,9513.809524209104
946,2,176,9401.764706281929
960,0,148,9265.85820926563
974,3,177,9189.95398810455
975,4,170,9162.479986464386
976,4,171,9108.529412151818
978,1,156,9087.409091258956
984,2,182,9080.909091308651
988,4,175,9055.209838708404
992,1,160,8970.858974708839
998,4,181,8848.025210471136
1000,2,184,8781.208791608336
1001,1,161,8746.50000034986
1011,1,171,8692.152174262905
1025,2,198,8685.652174312583
1029,5,154,8650.416666991057
1043,4,195,8554.418264930475
1057,3,191,8462.076271560887
1063,5,160,8425.308441882817
1069,0,154,8383.445946256134
1070,1,172,8183.634503273826
1080,1,182,8136.03488407078
1086,5,166,8108.7500003243495
1087,2,199,8070.808081207585
1088,0,155,8054.383117193212
1094,2,205,8030.201005424628
1100,0,161,8002.016129342335
1114,4,209,7939.60030204618
1116,3,193,7840.903141735659
1126,5,176,7815.075301529144
1128,2,207,7794.878049179975
1138,3,203,7759.520725762998
1144,2,213,7719.4685994333
1148,0,165,7701.475155589489
1158,1,192,7688.807692657534
1164,0,171,7513.257576067498
1174,2,223,7501.737089601346
1182,4,217,7407.150295911932
1186,3,207,7376.662561950721
1188,5,178,7370.113636687923
1194,1,198,7288.166667016499
1195,5,179,7287.12078684113
1199,0,175,7247.441520777666
1200,5,180,7246.319832726507
1214,3,221,7233.8768119685565
1220,5,186,7205.972222546491
1226,2,229,7164.887892776123
1232,4,223,7133.739496185325
1238,0,181,7080.357143166909
1248,1,208,7067.207071056898
1250,2,231,6976.899563718206
1254,5,190,6972.9973121522025
1256,4,225,6941.554999068078
1260,2,235,6916.406926806349
1268,4,233,6879.771242217052
1274,0,187,6843.57734837597
1280,5,196,6825.855263482123
1281,2,236,6798.510638697285
1283,3,223,6774.830317116392
1289,2,242,6769.661017348562
1290,1,209,6727.269231119049
1300,3,233,6713.957399477442
1306,1,215,6695.064593651253
1310,4,237,6643.242868349605
1316,0,193,6621.9919789192045
1318,5,198,6616.403061548695
1326,2,250,6601.570248333281
1332,5,204,6549.406565980762
1346,4,251,6530.966741513791
1352,1,221,6508.127907326556
1354,3,235,6425.26824071762
1362,0,201,6414.183938133318
1372,2,260,6390.000000399375
1380,3,243,6370.478723778521
1388,5,212,6356.299019932013
1390,1,223,6331.341629309083
1391,1,224,6274.5269061794015
1397,1,230,6246.500000349804
1399,4,253,6166.1811581089805
1413,3,257,6160.3395065470795
1419,0,207,6156.405472946175
1423,2,264,6143.846154245504
1433,4,263,6117.364566766834
1439,5,218,6115.825472022252
1449,1,240,6083.456522088929
1459,2,274,6050.6060610054
1463,0,211,5976.147343304435
1469,5,224,5947.052752617692
1470,4,264,5884.41847500108
1476,4,270,5862.094474540196
1477,0,212,5861.670616422947
1483,0,218,5833.726415403527
1497,1,254,5829.833333683124
1499,2,276,5829.416058793476
1505,3,263,5824.075875860579
1513,5,232,5787.321428895519
1514,2,277,5787.101449674672
1524,2,287,5766.173285597864
1528,4,274,5731.623094068802
1534,3,269,5690.922053606117
1542,0,226,5671.444954437534
1546,4,278,5647.816659897396
1552,5,238,5587.198276186127
1562,4,288,5566.421921673365
1570,2,295,5564.912892385345
1580,3,279,5563.708178812822
1594,1,268,5508.311023971824
1608,0,240,5468.4734516364015
1614,5,244,5445.934874273613
1618,2,299,5413.728813958584
1620,4,290,5372.826797772464
1622,3,281,5363.844086395633
1630,2,307,5341.170568961125
1636,4,296,5335.709939534912
1642,3,287,5325.578292189069
1652,5,254,5311.6188527830245
1660,4,304,5227.368839814489
1670,1,278,5220.38059736469
1671,3,288,5213.980836611037
1681,2,317,5201.726384764053
1685,3,292,5195.833333707433
1695,0,250,5145.833333642083
1705,3,302,5124.48630174395
1711,5,260,5101.860236544441
1717,4,310,5089.5665638543
1718,2,318,5037.31861238659
1724,1,284,5032.471223371338
1725,2,319,5021.446541279707
1726,2,320,5005.673981590426
1734,4,318,4990.882353327969
1736,2,322,4990.0000003992
1740,5,264,4983.750000323944
1746,2,328,4958.944099778077
1760,3,316,4954.3874175926
1762,0,252,4937.500000308594
1766,1,288,4926.0774651384845
1767,5,265,4907.9924245663515
1773,0,258,4897.817460626024
1779,5,271,4889.410377682414
1780,2,329,4868.048780886984
1790,4,328,4865.0961898059395
1791,1,289,4857.6111114608575
1805,2,343,4853.221884897658
1806,1,290,4840.790657789194
1814,1,298,4824.086207246299
1820,0,264,4782.461240618545
1822,5,273,4780.797970803605
1830,5,281,4745.6547622286525
1834,3,320,4734.3354434119865
1838,4,332,4716.49210942549
1842,1,302,4694.486577530947
1848,3,326,4675.000000374
1856,0,272,4672.34848515686
1870,4,346,4659.557052123101
1876,2,349,4654.723032469114
1882,1,308,4632.26158975371
1890,5,289,4610.084519896812
1894,3,330,4588.726994239012
1900,2,355,4574.527221029499
1906,1,314,4541.954545804276
1907,0,273,4533.088235602368
1917,3,340,4532.954545828513
1927,0,283,4516.254579062813
1941,2,369,4497.04225392024
1943,5,291,4482.019896517598
1949,4,352,4470.651139455056
1951,1,316,4455.098726464375
1953,5,293,4451.103952213853
1967,1,330,4426.879747185167
1977,5,303,4420.610068583195
1983,3,346,4399.26470625629
1997,4,366,4394.291444236966
1999,0,285,4354.461131050128
2000,2,370,4326.043360832681
2006,0,291,4323.464912588749
2012,3,352,4322.760115980855
2016,2,374,4314.3243247233995
2026,5,313,4274.179043228059
2028,2,376,4268.074866709226
2042,3,366,4248.8636367375375
2048,2,382,4245.31914933523
2054,1,336,4238.924242773954
2056,0,293,4233.032646356063
2057,4,367,4225.855030923471
2067,4,377,4214.315595834652
2081,0,307,4203.711604403486
2083,2,384,4178.481675791716
2089,1,342,4163.166667016373
2095,2,390,4156.666667065706
2096,5,314,4137.104632911588
2102,5,320,4123.877388858757
2104,4,379,4102.288188871584
2105,2,391,4092.564102963128
2107,1,344,4090.0672518116885
2121,3,380,4085.8606561115616
2135,2,405,4082.07161165222
2139,4,383,4080.592115860794
2149,1,354,4066.2674422101636
2157,5,328,4046.2500003237005
2165,4,391,4037.879742361746
2173,0,315,4009.1612380927195
2174,4,392,3955.0767267293195
2180,1,360,3951.302260236696
2194,5,342,3947.164634470009
2198,4,396,3944.963985980845
2200,2,407,3940.617284349605
2201,3,381,3934.8684214264445
2207,3,387,3924.5078743895574
2209,2,409,3921.2039316029136
2215,0,321,3905.753968561546
2217,4,398,3905.023767469188
2219,2,411,3901.980440496777
2223,1,364,3885.388889238574
2233,4,408,3885.354715136814
2239,2,417,3882.944039328413
2245,3,393,3863.4689926218525
2253,1,372,3842.6538465035273
2263,0,331,3831.580997192219
2273,2,427,3826.9304560344494
2283,3,403,3804.293893503542
2297,4,422,3789.9019611708836
2299,5,344,3784.9195909668856
2307,5,352,3762.8197677654634
2311,1,376,3759.9408605647286
2317,2,433,3737.072599930549
2325,1,384,3719.90425566882
2339,0,345,3713.935045624549
2340,3,404,3709.584367619398
2348,3,412,3700.37128750245
2354,2,439,3685.1501158723586
2360,5,358,3676.9318185053885
2366,4,428,3663.8681353182355
2372,1,390,3642.333333682998
2378,2,445,3634.646925228059
2386,3,420,3628.2766994028384
2388,5,360,3615.0349165246625
2392,4,432,3612.377680430504
2406,5,374,3594.861111434649
2408,1,392,3586.2435900932487
2414,2,451,3585.5056183764154
2422,4,440,3578.8453162906544
2430,1,400,3567.9285717782286
2444,0,359,3560.688406104211
2454,3,430,3558.928571802259
2458,2,455,3537.6718407536396
2460,4,442,3513.6096260549466
2470,2,465,3506.4835168823793
2478,4,450,3497.6696836444107
2484,1,406,3496.5000003496507
2490,3,436,3475.872093396912
2496,5,380,3459.685829200486
2502,1,412,3444.775862418611
2508,4,456,3435.3267977720952
2514,2,471,3430.8602154526006
2520,3,442,3427.866972850701
2522,0,361,3419.3941507247173
2526,5,384,3404.8026319024034
2528,0,363,3400.1038784232023
2529,1,413,3394.558252776824
2539,4,466,3390.0051603451807
2553,2,485,3387.0276012480795
2554,1,414,3386.330508824215
2556,3,444,3381.16515874466
2570,0,377,3381.0261711057265
2574,1,418,3378.1425124269326
2575,5,385,3369.166666990107
2589,3,458,3365.878378751991
2595,5,391,3360.373376946812
2597,1,420,3345.7822970003517
2605,1,428,3329.8333336829655
2609,4,470,3317.062610838344
2615,5,397,3308.5581844666335
2621,2,491,3288.9690725637365
2631,4,480,3288.7546937531374
2641,1,438,3267.528037732802
2647,3,464,3262.609170679246
2651,5,401,3258.309194278047
2661,0,387,3253.149867680615
2663,2,493,3248.6558048794245
2673,2,503,3235.4361058754407
2687,5,415,3225.645262168758
2693,3,470,3220.258621063205
2699,4,486,3220.049019994249
2705,1,444,3192.8470323130873
2713,4,494,3180.182764850202
2719,3,476,3178.989362075659
2721,2,505,3170.914513321208
2725,0,391,3167.4741605131712
2726,2,506,3158.316832081906
2730,2,510,3152.0553363671147
2731,1,445,3149.6531535027643
2735,1,449,3142.5674160799476
2745,3,486,3138.7605045751934
2749,0,395,3134.430946597951
2763,4,508,3128.5341751898986
2771,2,518,3127.2549023595093
2775,5,419,3116.280120805242
2781,1,455,3114.5400894364666
2782,0,396,3102.056962331644
2796,0,410,3094.0656568719687
2797,5,420,3086.3752986526533
2805,5,428,3078.988095561389
2811,2,524,3078.803089201794
2825,3,500,3073.919753459901
2831,1,461,3073.4230772726787
2841,2,534,3043.435114902507
2843,4,510,3042.0634556897235
2849,1,467,3033.37635609797
2851,4,512,3030.0980396020236
2861,5,438,3021.133177893355
2869,4,520,3018.2261033275095
2871,1,469,2994.358672726465
2877,3,506,2987.5000003734376
2879,0,412,2986.280488110972
2880,2,535,2986.2546820466055
2888,1,477,2981.5746272152614
2890,2,537,2980.654206006139
2896,4,526,2971.6515840967218
2897,0,413,2971.4805828303342
2901,2,541,2969.5158290764975
2905,0,417,2964.1343828726326
2915,3,516,2951.926877843775
2919,5,442,2951.786530003586
2925,2,547,2947.486137182381
2927,4,528,2937.6504141639793
2941,0,431,2935.1019187712122
2947,1,483,2931.5104825298763
2953,4,534,2926.488413933533
2963,5,452,2924.9264709114395
2964,2,548,2915.0457042377548
2970,2,554,2909.70802959571
2972,1,485,2895.0507249872585
2978,3,522,2894.476744559434
2986,4,542,2893.504076173902
3000,1,499,2883.097938493906
3002,2,556,2878.086642997893
3010,2,564,2867.697842125229
3016,3,528,2861.0632187641736
3030,5,466,2859.856195013429
3044,4,556,2850.6609511134193
3050,0,437,2837.732018867251
3058,3,536,2828.409091282441
3066,2,572,2826.8794330227033
3072,1,505,2802.111222794453
3080,0,445,2797.911899619173
3086,2,578,2787.202797601367
3092,3,542,2786.007463059893
3098,4,562,2778.6521375000707
3106,5,474,2773.4495711385575
3116,1,515,2768.7772280723307
3118,2,580,2758.1660903639527
3120,3,544,2755.0276756500593
3124,4,566,2748.8894707651175
3128,2,584,2748.6206900537222
3129,0,446,2746.488764350491
3130,3,545,2744.8529415497705
3136,0,452,2740.190583265173
3144,3,553,2739.7935783549483
3148,2,588,2729.7260277958003
3149,4,567,2729.3982543874567
3151,5,476,2726.366034078349
3155,4,571,2724.568420346784
3161,1,521,2714.946602291297
3167,5,482,2714.842437297856
3173,2,594,2711.0884357726795
3179,4,577,2705.4182552538196
3183,0,456,2702.9867259691546
3189,3,559,2699.977396394972
3195,1,527,2683.640115512692
3205,2,604,2683.6026940012084
3206,5,483,2680.8454360076894
3220,0,470,2678.7280704808136
3221,4,578,2677.190845528401
3229,5,491,2675.261387486599
3230,4,579,2672.5432529813384
3234,3,563,2670.8631488526808
3235,4,580,2667.9117142945415
3245,4,590,2663.2961464308028
3247,1,529,2653.0464899131066
3251,3,567,2651.7984017942
3265,1,543,2643.0028358882896
3279,2,618,2639.006622915046
3285,3,573,2633.002645875874
3291,5,497,2631.407841463535
3301,4,600,2618.0009973951283
3309,3,581,2605.301047493628
3311,5,499,2599.444165312921
3315,0,474,2597.0744683902626
3323,5,507,2588.960421164656
3331,2,626,2578.9967641525004
3337,1,549,2574.768876960943
3343,0,480,2574.6308019928574
3345,4,602,2574.215686660642
3359,3,595,2569.2555941769715
3365,4,608,2565.6331838920883
3366,5,508,2547.8525644255046
3374,1,557,2546.591075030758
3375,2,627,2545.9105435294255
3379,5,512,2542.8051184331725
3380,2,628,2541.834131179932
3386,0,486,2541.6666669716665
3390,4,612,2540.2244585904486
3391,2,629,2537.770701035373
3392,2,630,2533.720191177442
3406,2,644,2529.6825400809644
3408,4,614,2523.562091889373
3414,5,518,2522.81250032292
3415,4,615,2515.3123207539875
3417,4,617,2511.2075565793075
3425,1,565,2509.9649913728517
3433,0,494,2509.5164612102562
3434,3,596,2508.5084037344855
3438,3,600,2504.27852386307
3439,4,618,2503.0379448993936
3445,4,624,2498.9729682139996
3459,5,532,2493.4025099754053
3465,3,606,2487.5000003731247
3467,4,626,2474.856712301613
3477,2,654,2474.472050087831
3479,1,567,2474.3761065441954
3489,0,504,2467.864372774417
3497,4,634,2466.920691985397
3503,1,573,2465.63580281864
3509,3,612,2462.747525125582
3519,1,583,2439.7809776618897
3523,3,616,2438.48039252995
3531,2,662,2436.483180826499
3533,4,636,2435.6773060086193
3547,4,650,2427.9892715662204
3553,5,538,2427.35902287923
3559,3,622,2422.5649354380103
3560,0,505,2417.658730463355
3566,0,511,2412.7475250570847
3574,2,670,2406.9184294013658
3588,5,552,2400.106877646235
3596,3,630,2399.075563074021
3598,1,585,2397.872213042457
3602,1,589,2389.6623935118814
3608,0,517,2383.6839533377843
3609,2,671,2378.0597018908625
3610,4,651,2375.4977379425795
3620,2,681,2374.5007455548057
3626,1,595,2373.410017327413
3632,4,657,2371.8347342795732
3634,3,632,2368.4523813254123
3635,3,633,2360.917721892012
3649,3,647,2357.1682468185195
3655,0,523,2355.294971290882
3669,4,671,2350.090876919264
3679,1,605,2349.441176820068
3680,2,682,2339.486050324876
3690,5,562,2338.822464090873
3696,2,688,2336.04105611677
3704,0,531,2327.5573616810007
3706,2,690,2315.5813957471173
3716,1,615,2310.5495871263306
3726,2,700,2308.84058010842
3728,3,649,2305.8925815167186
3732,4,675,2300.86745019749
3742,3,659,2298.74807433291
3748,5,568,2296.9172601091936
3762,0,545,2291.5489645226594
3763,4,676,2287.1786496234345
3767,4,680,2283.7817616111597
3777,2,710,2275.7142861125353
3791,1,629,2272.9227645771048
3797,5,574,2272.4823946888896
3798,4,681,2270.2941180330085
3799,4,682,2266.946964193497
3801,3,661,2263.6760246521517
3811,4,692,2263.6096260543945
3812,3,662,2256.7889565000146
3818,3,668,2253.361027563263
3824,5,580,2248.5583626920056
3838,2,724,2243.5211271587887
3844,3,674,2233.008982408841
3848,0,549,2231.0779819553604
3854,4,698,2230.7667463906832
3862,5,588,2225.129310667471
3876,1,643,2222.2551672810873
3882,0,555,2214.3670312693134
3886,3,678,2213.0192882067213
3888,4,700,2211.512725819922
3898,4,710,2205.168067612795
3902,2,728,2199.9447517794056
3906,3,682,2199.8893809038545
3916,5,598,2194.6343540641083
3922,0,561,2189.7522525560803
3936,2,742,2187.8021982003775
3937,3,683,2186.9134901089387
3941,3,687,2183.693265380186
3943,4,712,2173.9809448763535
3953,1,653,2173.793935030619
3955,3,689,2170.906113909971
3957,4,714,2167.848645461885
3961,0,565,2165.66399317361
3962,3,690,2164.5682151769106
3970,4,722,2161.7507006659844
3971,3,691,2161.4130438511042
3977,3,697,2158.2670047143747
3978,5,599,2157.663043800831
3982,5,603,2154.033806666473
3988,0,571,2149.889380834645
4002,2,756,2146.334232204075
4008,1,659,2140.4509957552477
4010,5,605,2139.6372308366463
4016,3,703,2139.580344705677
4017,4,723,2137.6967577591636
4031,4,737,2134.7274432302097
4037,5,611,2132.5103309010547
4047,0,581,2126.6418566958723
4055,3,711,2121.212660401253
4063,1,667,2120.9309563433535
4073,5,621,2111.409574790603
4079,2,762,2106.402116800227
4089,3,721,2097.2046417229894
4095,1,673,2095.450525087047
4101,4,743,2094.003113164174
4115,2,776,2089.7375332064935
4125,0,591,2088.9629951399106
4127,5,623,2077.147745894136
4133,4,749,2077.019634619042
4137,1,677,2076.737741805577
4151,5,637,2070.4273678987133
4157,3,727,2067.9438283893905
4163,1,683,2064.4468245739276
4165,4,751,2060.308254528571
4179,4,765,2054.7971336199075
4180,0,592,2052.5592219614723
4188,2,784,2051.855670501153
4194,3,733,2050.7737280205956
4196,0,594,2048.9864867897363
4202,1,689,2046.2803810229016
4216,0,608,2041.8771046803233
4224,3,741,2033.8847207001309
4234,2,794,2030.816326928652
4240,1,695,2028.4303341665232
4248,5,645,2024.566326853024
4256,4,773,2017.0261441766058
4270,3,755,2011.791498348393
4272,1,697,2010.888489558025
4282,2,804,2005.1133505239595
4288,1,703,2005.1083217267217
4289,5,646,1999.253876291372
4299,5,656,1996.1339012511683
4305,4,779,1996.0569975701226
4311,0,614,1993.4210529345792
4319,1,711,1987.9651497092714
4325,4,785,1980.6127769469263
4326,2,805,1980.0497516417713
4332,2,811,1977.57764014954
4338,3,761,1974.2549672600578
4344,0,620,1973.3306191954146
4350,1,717,1965.557665609575
4351,5,657,1965.4573173955057
4357,4,791,1965.4046463205177
4358,2,812,1962.872996698836
4368,5,667,1962.4410201092412
4374,2,818,1960.4433501516642
4380,3,767,1958.59067054345
4384,0,624,1953.629032560877
4390,4,797,1950.4272332257353
4396,1,723,1949.080195607392
4402,2,824,1945.9902204468544
4408,3,773,1943.171447569474
4422,0,638,1940.7051285078783
4423,4,798,1935.6753269780515
4424,4,799,1933.2382430511686
4426,1,725,1932.8762105844992
4427,5,668,1932.775487578662
4437,2,834,1931.747573213474
4445,4,807,1930.807259459521
4451,5,674,1929.857784753424
4453,3,775,1927.9915915756892
4459,1,731,1927.5344831079863
4465,3,781,1922.98387134032
4469,5,678,1912.5333831115793
4475,1,737,1911.6846788719324
4477,4,809,1911.576281455709
4479,2,836,1908.4652282156612
4493,3,795,1908.1145970434943
4497,4,813,1906.8279651933342
4498,2,837,1903.8755984840343
4508,2,847,1901.589008761109
4509,5,679,1901.1541301157556
4515,5,685,1898.3302654179706
4517,4,815,1897.4014185174751
4519,0,640,1896.7476492053524
4525,1,743,1896.092944718419
4533,4,823,1892.7228441243649
4537,0,644,1890.6250003024998
4541,5,689,1881.5602193003194
4547,1,749,1880.7530286131453
4553,2,853,1879.020071236135
4561,0,652,1878.4937891223133
4567,3,801,1874.2924532027043
4568,4,824,1874.2359377739451
4574,4,830,1871.950314491847
4582,5,697,1870.5424531523895
4588,2,859,1865.7327084869648
4596,1,757,1865.6588788540173
4602,3,807,1860.1591764024595
4608,4,836,1858.352232844857
4616,0,660,1854.677914412742
4624,2,867,1852.6309666376662
4625,5,698,1848.8862987439759
4627,3,809,1846.236059852032
4633,5,704,1846.2141837032532
4637,1,761,1845.9055485659824
4647,4,846,1844.9493389727043
4649,3,811,1841.6409150819898
4653,3,815,1837.0684344045249
4654,1,762,1836.1846258421072
4656,2,869,1835.4440603747641
4660,1,766,1833.770341556682
4662,0,662,1831.4393942415816
4668,2,875,1831.196778303466
4682,5,718,1830.340909413049
4692,3,825,1827.9907979184652
4698,0,668,1825.7175229607665
4700,1,768,1824.176240558207
4701,4,847,1823.0336535631548
4711,4,857,1820.8705469513031
4719,1,776,1819.4166670159943
4721,2,877,1818.571428969241
4727,2,883,1814.4013686988337
4733,0,674,1808.7574853320025
4741,3,833,1805.6818185542402
4749,2,891,1802.0045304091177
4750,1,777,1800.623711689527
4756,4,863,1799.5171257888
4757,1,778,1798.301802151122
4759,1,780,1795.9858615318385
4763,5,722,1794.334958539353
4777,0,688,1792.0994068301586
4787,1,790,1791.3717952211125
4795,3,841,1788.220288487643
4796,4,864,1786.9426082513903
4802,2,897,1785.7351294662346
4803,4,865,1784.8638348081884
4805,5,724,1784.3040169425656
4809,4,869,1782.7898677775718
4811,5,726,1779.3301108192964
4812,4,870,1774.541731922783
4826,5,740,1774.3836091374778
4827,2,898,1773.723523251715
4841,4,884,1772.4915487289923
4842,2,899,1771.7371941616748
4848,3,847,1771.0909635114924
4850,2,901,1769.7552840462506
4858,1,798,1768.6518990834863
4864,2,907,1765.8046618849842
4872,3,855,1758.4563167832148
4873,0,689,1754.3604654180292
4881,2,915,1754.0573322610178
4891,0,699,1751.7235126384542
4905,1,812,1750.8859652615824
4909,4,888,1744.2760184850324
4911,3,857,1741.8859652846088
4912,5,741,1740.5067570787505
4916,2,919,1738.6338801791333
4917,5,742,1738.1359652342703
4923,3,863,1737.791715658203
4933,4,898,1736.3778488221478
4934,5,743,1735.771563664304
4935,5,744,1733.4135265669343
4939,5,748,1731.0618282789665
4949,2,929,1731.0228513226207
4955,0,705,1725.768955952508
4957,3,865,1725.6228277187688
4961,5,752,1721.7179147604638
4971,3,875,1721.6040466150712
4981,1,822,1720.637931383772
4987,4,904,1716.9402597854269
4993,5,758,1712.473404577264
4994,2,930,1712.2820240790552
5002,0,713,1710.5496456915557
5008,2,936,1710.4301079245565
5010,4,906,1705.4841232381204
5018,3,883,1701.7857146579797
5024,4,912,1701.699130368554
5032,1,830,1699.6630173809106
5038,2,942,1699.4017097993694
5039,5,759,1698.7895781583322
5045,5,765,1696.5299739714553
5051,0,719,1690.6556805257633
5059,4,920,1690.4437568353692
5073,2,956,1688.5138008222732
5074,3,884,1686.2542472578577
5088,3,898,1684.3325795577578
5090,1,832,1683.2469883010808
5092,5,767,1683.0964055506502
5106,1,846,1679.1923080415795
5120,5,781,1678.6652545591721
5121,0,720,1676.0257304820723
5122,4,921,1675.6649620222315
5123,4,922,1673.835664944384
5137,0,734,1673.6111114123612
5143,4,928,1672.0103359729953
5144,2,957,1663.6401677616266
5152,2,965,1661.8913274613483
5156,4,932,1661.1409740162162
5162,3,904,1657.8786195258685
5170,4,940,1653.9724820819167
5178,1,854,1651.3463360466594
5188,5,791,1648.2826507699708
5192,2,969,1648.0310884804894
5202,3,914,1646.7920357704052
5208,2,975,1641.1867909032537
5209,0,735,1640.4972755053911
5219,4,950,1639.8185235393
5220,0,736,1638.180272409859
5228,0,744,1635.8695655183915
5234,1,860,1635.8442626443348
5240,2,981,1631.0256414232035
5250,3,924,1628.6378559520124
5252,5,793,1627.2392544305096
5260,1,868,1624.4069770934339
5268,5,801,1623.0942626168605
5274,4,956,1622.4613006949319
5288,2,995,1620.9887873496375
5290,0,746,1617.607527182595
5291,0,747,1613.103217459021
5297,4,962,1612.2212654603886
5311,3,938,1610.8766237487355
5321,0,757,1610.8601073958748
5327,1,874,1609.4032261556922
5335,5,809,1606.7212862143801
5339,4,966,1602.108964553095
5341,1,876,1598.3306639647958
5347,2,1001,1598.0402014025374
5361,4,980,1595.4372187509055
5367,1,882,1594.6735163309688
5381,5,823,1590.6721264032956
5387,0,763,1588.754954065533
5395,2,1009,1588.401598799096
5399,3,942,1586.6471219072498
5407,1,890,1583.8015876508155
5421,3,956,1579.8566882701455
5429,0,771,1575.7699871944183
5435,2,1015,1575.728444401442
5436,4,981,1572.5150063876672
5442,4,987,1570.9027406862774
5448,1,896,1569.5337082143897
5462,2,1029,1566.3546802004182
5466,5,827,1563.3368775999068
5472,4,993,1561.2977535290609
5480,1,904,1559.000000349216
5494,0,785,1558.771076824448
5500,3,962,1556.5376572757782
5504,5,831,1555.6967959685567
5512,4,1001,1551.8088387241974
5526,5,845,1548.1302650628998
5532,3,968,1546.7515596235528
5546,1,918,1545.1725667208905
5548,2,1031,1544.9076777540845
5554,2,1037,1541.8913680016904
5555,4,1002,1539.3339017779433
5569,4,1016,1537.788540951143
5571,3,970,1537.0867772314791
5577,3,976,1533.8917529492883
5591,2,1051,1532.9122472633671
5597,0,791,1529.8566881983236
5603,3,982,1524.3852462735895
5607,5,849,1522.2115387831059
5609,1,920,1521.5544665801333
5615,1,926,1518.2391307839775
5629,0,805,1517.778129250836
5635,4,1022,1516.472904507463
5643,3,990,1514.994908722237
5649,5,855,1514.963192312128
5655,2,1057,1512.3596578664497
5661,1,932,1508.3790500252157
5675,4,1036,1507.516404206973
5676,5,856,1504.2178365788366
5678,2,1059,1503.7180704068182
5684,3,996,1502.6515155234215
5698,5,870,1502.4415891065694
5712,2,1073,1500.8593016249256
5722,1,942,1498.6459230959656
5732,3,1006,1493.5240967574298
5738,0,811,1490.2950313558224
5742,4,1040,1487.0213494653115
5743,1,943,1482.6995757207258
5747,4,1044,1481.2669687109214
5749,2,1075,1481.146319129843
5759,1,953,1481.1235422367677
5760,0,812,1478.8070286598777
5761,3,1007,1478.553678304262
5767,2,1081,1478.3720934205685
5771,5,874,1478.002873884684
5781,3,1017,1477.072989448318
5789,0,820,1476.9088672948862
5793,4,1048,1475.5566828282124
5799,5,880,1471.16418796447
5807,2,1089,1470.1110087229222
5813,4,1054,1469.889986914074
5827,1,967,1465.5451210207295
5841,3,1031,1462.4262540591374
5843,0,822,1461.8902442021265
5851,4,1062,1461.4705886203917
5852,5,881,1461.0227275941522
5854,5,883,1459.3459140558136
5855,2,1090,1459.2378332714738
5869,0,836,1458.1812655064687
5877,2,1098,1457.8899086541558
5881,5,887,1456.003680955614
5882,4,1063,1450.392711141698
5890,5,895,1449.36443098656
5894,4,1067,1449.0197004570155
5902,2,1106,1447.194900215106
5903,1,968,1444.2766290978614
5909,4,1073,1443.5533936261504
5919,1,978,1442.78099208469
5929,3,1041,1442.398157500779
5935,2,1112,1436.6546116088082
5939,5,899,1436.263966801811
5941,4,1075,1435.430349598365
5943,4,1077,1432.742818442505
5953,0,846,1432.7153113042223
5967,4,1091,1430.0652688322566
5973,5,905,1429.8011682857527
5979,2,1118,1428.848921260529
5985,3,1047,1428.422190573476
5986,1,979,1427.9928428849314
5988,1,981,1426.5306438629327
5996,1,989,1423.6151889322202
6010,2,1132,1421.1270129195664
6016,5,911,1420.2140887191135
6017,3,1048,1420.1647568187193
6018,3,1049,1418.7977102953892
6026,3,1057,1417.4332701524654
6040,0,860,1415.0413714576737
6044,1,993,1412.071284474514
6054,4,1101,1411.5972937478214
6060,5,917,1410.7532934058218
6074,3,1071,1406.6106910055662
6082,1,1001,1406.3690839342266
6096,2,1146,1403.4275622346256
6106,5,927,1401.416303483761
6112,4,1107,1398.6934341617707
6126,1,1015,1395.101398950523
6140,4,1121,1391.0630217995044
6146,0,866,1390.988372392086
6156,3,1081,1388.060224461289
6162,2,1152,1386.1605588613586
6170,5,935,1386.1232473546754
6172,0,868,1380.9180141557817
6174,2,1154,1378.8888892860089
6184,0,878,1377.5921661975551
6185,2,1155,1376.481802823458
6189,1,1019,1375.8103451766983
6195,2,1161,1375.2813856784976
6203,3,1089,1375.104070676895
6205,5,937,1374.1243318720037
6219,4,1135,1373.5763765196984
6225,5,943,1371.15661718352
6231,1,1025,1370.3959767966057
6245,2,1175,1368.122308751964
6255,3,1099,1364.9104686911564
6261,1,1031,1362.3536588856882
6271,5,953,1362.3290035025052
6273,0,880,1361.1902053101708
6279,0,886,1357.9545457532954
6285,4,1141,1356.521119845913
6286,1,1032,1354.404947002832
6292,1,1038,1353.0891476359186
6298,3,1105,1352.3771614270706
6304,2,1181,1351.7021280566369
6314,4,1151,1349.3398467528943
6320,0,892,1348.335214745609
6321,5,954,1347.8633266590089
6327,5,960,1346.4334384762606
6333,1,1044,1345.2475918712496
6343,3,1115,1344.966063719963
6347,2,1185,1344.7840816840926
6353,2,1191,1340.2109708611727
6355,0,894,1338.845291778383
6361,5,966,1337.9166669877668
6362,4,1152,1337.5374358629774
6376,1,1058,1337.496168931462
6377,4,1153,1336.3684644371617
6385,0,902,1335.7102911262718
6391,4,1159,1335.2015207154673
6405,2,1205,1333.4089004809857
6406,3,1116,1332.7914801921431
6407,3,1117,1331.586021876889
6413,3,1123,1330.3827219471582
6415,5,968,1329.5056939028561
6417,4,1161,1328.2421462509699
6419,5,970,1326.7252069326378
6420,4,1162,1325.9383395448071
6421,4,1163,1324.7894101246509
6422,5,971,1323.9561858880697
6430,4,1171,1323.6424565074528
6444,0,916,1323.3093129369872
6445,3,1124,1323.2079255718468
6451,5,977,1322.5759529472139
6465,3,1138,1322.0195733252244
6473,1,1066,1319.7514181184506
6481,2,1213,1317.8008302725063
6489,4,1179,1314.5373490561526
6495,5,983,1314.353889778554
6501,1,1072,1309.8208258650147
6515,2,1227,1309.0436937193085
6517,5,985,1306.2321976760422
6521,3,1142,1305.6019335876124
6531,4,1189,1305.5558054040214
6537,5,991,1303.5469546357194
6541,1,1076,1302.4701496027933
6543,0,918,1302.1288212588863
6551,3,1150,1300.9851142068078
6557,0,924,1299.1557737186354
6563,1,1082,1297.6152419847463
6567,5,995,1295.556256627735
6569,4,1191,1294.4988377666728
6575,2,1233,1293.9934804295322
6585,4,1201,1292.3097252823009
6587,3,1152,1291.8478264583628
6593,1,1088,1290.4001851919368
6599,0,930,1290.3138531119153
6605,5,1001,1290.2826636375407
6613,3,1160,1289.5833337047331
6619,2,1239,1287.6480133733976
6620,1,1089,1283.2647062314009
6624,5,1005,1282.4512990222322
6630,1,1095,1282.083104113969
6640,0,940,1281.586021803345
6641,4,1202,1281.4735273475876
6643,2,1241,1281.3640036253123
6649,3,1166,1280.603448647237
6659,4,1212,1280.3998242078003
6665,2,1247,1279.2828368191376
6669,5,1009,1277.2823386293749
6675,1,1101,1275.0388131344303
6681,3,1172,1273.949400028303
6687,2,1253,1273.079390934172
6693,5,1015,1272.1543610741219
6707,4,1226,1269.7602411146927
6711,1,1105,1268.0712991682917
6719,3,1180,1267.3634816000065
6725,0,946,1267.2872343403656
6739,2,1267,1266.9353555445132
6753,5,1029,1264.538177660778
6759,1,1111,1263.4683261408884
6763,0,950,1258.8530658368309
6771,3,1188,1258.6864410492785
6785,1,1125,1256.6260129502882
6795,4,1236,1255.1564153160941
6801,0,956,1253.2894739818669
6807,2,1273,1252.82557261467
6813,3,1194,1250.12626299755
6817,5,1033,1247.1124881731034
6831,2,1287,1246.8735274981527
6839,0,964,1245.0313810507007
6841,4,1238,1244.927660769225
6845,3,1198,1243.7814074064445
6846,4,1239,1242.901739432478
6852,5,1039,1242.220474667367
6856,4,1243,1241.8912314533745
6862,1,1131,1240.9444447934604
6866,3,1202,1239.5868117235098
6870,4,1247,1237.8654587160281
6880,3,1212,1235.4201334827246
6886,5,1045,1234.9530802052834
6894,1,1139,1234.3426175019727
6896,0,966,1234.1804982227486
6897,4,1248,1233.8655129088331
6898,2,1288,1233.2012435980257
6906,4,1256,1232.8695328130113
6912,2,1294,1232.2360252415003
6918,0,972,1231.4958595106568
6920,5,1047,1227.7691390767354
6926,2,1300,1226.4760436734266
6927,1,1140,1225.6483761172212
6928,5,1048,1225.3927892414722
6936,3,1220,1225.12376274745
6942,4,1262,1224.9587864468324
6950,1,1148,1224.570175787599
6954,5,1052,1224.2080155879182
6958,0,976,1223.5082307499874
6964,2,1306,1220.769231165981
6965,5,1053,1219.4914451876464
6969,4,1266,1219.0915450849122
6970,5,1054,1218.31790155529
6976,0,982,1218.2377052152829
6982,5,1060,1217.1465847609459
6983,3,1221,1217.008197092499
6993,1,1158,1216.0121954709466
6994,3,1222,1216.0012288724129
7004,4,1276,1215.2109473226312
7008,2,1310,1215.1148549143463
7018,3,1232,1214.9959087181535
7024,2,1316,1211.3740461982516
7028,0,986,1210.4124239224109
7034,5,1066,1210.1650946603163
7040,2,1322,1205.80547152133
7046,4,1282,1205.6158956455172
7054,1,1166,1205.4810020761022
7058,0,990,1205.2484789989192
7064,3,1238,1205.0324679036175
7066,5,1068,1203.2621954426206
7070,5,1072,1200.9784647401368
7084,2,1336,1200.287443664471
7092,0,998,1200.126262923294
7102,4,1292,1199.9307152602316
7112,3,1248,1199.131664345283
7126,1,1180,1197.1861066954636
7132,5,1078,1196.4365674848243
7146,4,1306,1190.5727558025114
7156,0,1008,1190.0050103169463
7170,5,1092,1189.6869205432552
7172,3,1250,1189.423077294177
7174,2,1338,1187.6047908158216
7184,3,1260,1187.5000003710938
7190,2,1344,1185.8146491261018
7200,1,1190,1182.9406783150694
7206,2,1350,1180.4761908728303
7216,3,1270,1177.976190847253
7224,4,1314,1177.7123686396355
7225,0,1009,1177.579365376115
7235,0,1019,1176.3503471748315
7239,2,1354,1175.1851855818102
7253,5,1106,1174.2261907967543
7254,1,1191,1172.9705885842532
7255,1,1192,1171.9827879224258
7259,2,1358,1171.6838999534834
7261,1,1194,1170.9966446442588
7267,4,1320,1170.4866151217238
7275,1,1202,1169.029313581786
7285,3,1280,1168.6023625757557
7291,2,1364,1168.2032404555152
7295,4,1324,1165.1247775680918
7297,0,1021,1164.192836410415
7303,2,1370,1163.0205282558275
7309,0,1027,1161.7899121476732
7319,4,1334,1161.577217373997
7321,1,1204,1161.2254579196638
7323,3,1282,1159.3750003710002
7329,1,1210,1159.2906980233654
7333,5,1110,1159.15687192991
7341,2,1378,1157.8832120754073
7347,3,1288,1157.5468022430687
7353,5,1116,1154.9211714916617
7357,0,1031,1154.6372933831133
7367,1,1220,1153.5247937373708
7377,4,1344,1152.801393805396
7387,3,1298,1152.0962736629003
7393,2,1384,1151.1030482920557
7399,0,1037,1149.9151312372246
7401,5,1118,1148.6245522917925
7407,5,1124,1146.5406979948768
7421,2,1398,1146.0693645583895
7422,4,1345,1144.1561628494223
7430,1,1228,1144.04098395549
7436,4,1351,1143.298710202934
7450,3,1312,1143.1240373509129
7451,0,1038,1142.900193160328
7461,0,1048,1141.7389212982077
7467,5,1130,1140.3336302136722
7473,4,1357,1138.180650882962
7475,1,1230,1136.56514692873
7483,1,1238,1134.7113824627447
7497,2,1412,1134.4921320131002
7505,5,1138,1134.1924781965158
7511,4,1363,1133.1078507463644
7519,3,1320,1130.7926832977294
7523,0,1052,1130.2480918991785
7531,4,1371,1128.0797120929944
7537,1,1244,1127.356220058125
7543,5,1144,1126.1050091077232
7545,0,1054,1125.7129280527165
7555,3,1330,1123.8636367345111
7565,0,1064,1123.458254565481
7571,2,1418,1123.1444763171498
7577,1,1250,1121.9019296093618
7578,4,1372,1121.443987169461
7584,4,1378,1120.619962654995
7588,5,1148,1120.1136366839887
7592,2,1422,1118.3497888308696
7598,1,1256,1116.5000003489063
7599,5,1149,1116.1541815050052
7607,4,1386,1115.7009309743016
7613,3,1336,1115.319549243024
7617,2,1426,1115.1758091165575
7625,5,1157,1115.168625211542
7629,0,1068,1112.312030371063
7635,2,1432,1112.0196357400537
7641,1,1262,1111.1496818775634
7647,3,1342,1110.2544913887891
7648,4,1387,1109.2084716516356
7662,4,1401,1108.4021802901868
7664,0,1070,1107.9119853145392
7672,5,1165,1107.3455059382773
7676,2,1436,1107.3184361506098
7680,1,1266,1105.8502380668037
7688,0,1078,1105.7242993612017
7696,3,1350,1105.2347246629076
7702,2,1442,1104.206128530115
7710,1,1274,1102.345182023458
7714,5,1169,1099.6298286464475
7722,2,1450,1099.5700420052717
7726,3,1354,1098.6111114818925
7730,4,1405,1097.2349586074247
7738,0,1086,1097.0547312789586
7744,5,1175,1095.8115914237583
7750,1,1280,1095.4010992499843
7756,3,1360,1095.328656205333
7764,4,1413,1094.085200300563
7765,2,1451,1093.448276258444
7769,2,1455,1092.6878019125684
7777,3,1368,1090.4411768413383
7783,1,1286,1090.2500003488801
7791,5,1183,1090.132979043631
7795,2,1459,1089.6563577846787
7801,0,1092,1088.5128916399144
7809,4,1421,1087.8391827663615
7815,2,1465,1086.641535694502
7816,1,1287,1085.1469676894658
7817,1,1288,1084.3010881499617
7825,3,1376,1083.9912284409004
7833,1,1296,1083.4565220880033
7837,5,1187,1082.651099221293
7851,0,1106,1082.1886449840822
7857,2,1471,1082.150171044802
7858,4,1422,1081.6634933676612
7868,4,1432,1080.8964180230441
7878,5,1197,1078.9479784162183
7884,2,1477,1077.6954456716455
7886,3,1378,1077.6162794404675
7887,1,1297,1076.746913929113
7893,3,1384,1076.0341077727255
7895,1,1299,1075.914032731286
7896,1,1300,1074.2521173619505
7900,1,1304,1073.4230772719395
7906,4,1438,1073.284587962284
7907,2,1478,1073.2769130571064
7909,2,1480,1072.5439787454254
7915,3,1390,1071.3150292724092
7921,2,1486,1071.081081477381
7922,1,1305,1070.1196322506994
7923,5,1198,1069.7984547896442
7927,1,1309,1069.2969352147586
7929,5,1200,1068.8919034920864
7935,4,1444,1068.7683060374986
7941,0,1112,1067.6989153042603
7945,5,1204,1067.0833336534583
7955,2,1496,1066.7160165470254
7961,3,1396,1066.6366910181384
7965,1,1313,1066.0187169263945
7969,4,1448,1064.2895555414514
7971,5,1206,1063.4842195892118
7972,1,1314,1062.7604725499175
7980,3,1404,1061.998567705881
7988,1,1322,1061.9490110033403
7996,5,1214,1061.6936155771489
7998,0,1114,1061.6007197195854
8004,4,1454,1061.3243422756523
8010,0,1120,1059.5825855733704
8018,2,1504,1059.5187169738003
8026,4,1462,1056.9071126100941
8027,3,1405,1055.8760687466809
8033,1,1328,1055.5015132081473
8043,3,1415,1055.1156587335988
8053,5,1224,1054.5901980136432
8067,2,1518,1053.8297876302827
8068,0,1121,1053.5714288664285
8072,0,1125,1052.5758254510952
8076,4,1466,1051.073871793196
8090,1,1342,1050.7168678187177
8104,0,1139,1048.6111114060332
8110,4,1472,1048.1811254945028
8114,3,1419,1047.57067174867
8128,5,1238,1045.8415035880014
8134,3,1425,1044.5824528018554
8140,2,1524,1044.0184457189982
8144,4,1476,1043.8714837601037
8150,4,1482,1041.0178546803256
8158,3,1433,1040.1315793179153
8166,2,1532,1039.8687668003893
8174,1,1350,1039.7190763547871
8180,4,1488,1036.7662939460813
8181,0,1140,1034.9539072306118
8187,2,1538,1034.3864233726713
8195,3,1441,1034.255059686642
8201,0,1146,1033.9912283648628
8205,5,1242,1033.8307757642356
8207,1,1352,1033.5370373858557
8208,4,1489,1032.5490199919511
8216,1,1360,1032.0029589286985
8226,4,1499,1031.8494453333415
8236,5,1252,1030.4488731057836
8246,2,1548,1030.3120940242434
8254,3,1449,1028.443789405889
8264,0,1156,1028.2504365947682
8272,1,1368,1025.9117650546925
8278,4,1505,1024.9050351131182
8279,2,1549,1023.5917316622799
8287,2,1557,1022.9244677944489
8293,3,1455,1022.6966877410723
8299,5,1258,1022.0886584668784
8305,4,1511,1020.7826855511596
8307,1,1370,1019.8918132143001
8315,0,1164,1018.8148791871711
8317,3,1457,1018.4278354219995
8319,1,1372,1018.3978105677795
8333,2,1571,1017.6172129844184
8339,5,1264,1017.1363278238639
8345,3,1463,1017.0126976937137
8346,1,1373,1016.9081636141057
8360,4,1525,1016.6930747018041
8364,1,1377,1016.1649675738532
8365,1,1378,1013.2029778360863
8371,3,1469,1012.7904993451375
8377,1,1384,1012.4651672573574
8378,5,1265,1012.2310129780928
8379,5,1266,1011.4179845095842
8393,0,1178,1011.3831618063399
8403,5,1276,1010.6062404462392
8405,3,1471,1008.6027913847047
8409,2,1575,1008.4595802814957
8415,1,1390,1008.0606939904076
8421,4,1531,1007.2757959481512
8425,3,1475,1007.2144803160186
8431,2,1581,1005.8730162690782
8437,3,1481,1004.4491529127635
8438,1,1391,1003.6942449531005
8444,4,1537,1003.2925427438673
8454,1,1401,1002.9701656974528
8456,5,1278,1002.5587777492834
8462,2,1587,1002.0177107059781
8476,5,1292,1000.9643978158957
8480,3,1485,1000.329169850453
8484,4,1541,999.3403884585497
8492,0,1186,998.6205435878119
8496,2,1591,998.1915567917478
8502,3,1491,997.6010104713694
8516,4,1555,996.7227167255534
8522,1,1407,995.7862244743988
8526,2,1595,995.6568200063303
8528,3,1493,993.5362176741636
8532,2,1599,993.1347966342569
8536,3,1497,992.1885469209037
8542,1,1413,991.5248759706594
8546,0,1190,991.4629007998709
8548,2,1601,990.6253912652959
8550,5,1294,989.9419507841476
8552,3,1499,989.5040083863538
8556,2,1605,989.3753907770096
8562,5,1300,988.3867854820305
8576,3,1513,988.1671117779208
8582,0,1196,987.9201683611332
8592,4,1565,987.6669192415309
8598,1,1419,987.2997172631303
8602,2,1609,986.8847355984798
8608,2,1615,984.4064640379912
8618,5,1310,983.7500003197189
8619,1,1420,983.1102892846287
8627,0,1204,982.6505019660534
8629,1,1422,982.4154933065039
8637,4,1573,981.2976887883681
8638,1,1423,981.0288329788543
8640,2,1617,980.7120746993683
8646,1,1429,980.3369645089798
8652,2,1623,979.4867041683757
8654,3,1515,978.907799444958
8660,3,1521,977.5990102712559
8670,4,1583,976.2606114306218
8676,1,1435,976.2060885222976
8684,5,1318,976.1164125334185
8690,2,1629,975.828712657187
8700,0,1214,975.7059803601328
8710,3,1531,973.6932942558486
8716,2,1635,972.1976676764676
8722,1,1441,972.1097564463055
8732,5,1328,970.0929441739703
8740,4,1591,970.0358593263315
8744,2,1639,968.5932725671662
8746,1,1443,968.0475367817717
8756,3,1541,967.251796581842
8760,0,1218,967.1540365373535
8766,1,1449,966.7009705497076
8770,2,1643,966.2050034465432
8772,4,1593,965.1123973225358
8786,4,1607,963.8892585353406
8792,2,1649,963.8283631469575
8806,0,1232,963.7725782901848
8807,1,1450,962.6835752279593
8815,5,1336,962.6656629702074
8829,1,1464,962.0172417280417
8839,3,1551,960.8939004350775
8841,2,1651,960.2850216208623
8847,2,1657,959.1096309228258
8861,5,1350,956.8038925351412
8863,2,1659,955.600483196099
8869,4,1613,955.4125337854989
8879,3,1561,954.6179887647374
8889,2,1669,954.4364078702346
8893,1,1468,952.7841533541836
8901,0,1240,952.1103899036395
8902,4,1614,951.8246967843922
8908,4,1620,951.2293173894335
8918,1,1478,950.1784744631569
8924,2,1675,948.6578793652704
8930,3,1567,948.4224859562847
8931,4,1621,947.6724767817739
8937,4,1627,947.0822299443522
8947,5,1360,946.7129632824787
8948,0,1241,945.5645164221572
8952,2,1679,945.2238809928275
8966,0,1255,944.7522162479844
8968,3,1569,944.7431401276015
8974,1,1484,943.7259814041871
8982,4,1635,943.5559857773342
8983,3,1570,943.5229449207661
8989,2,1685,942.9481838383279
8995,3,1576,942.9140131089472
8999,1,1488,939.8962267637958
9013,5,1374,939.6323532606516
9019,2,1691,939.5548965382208
9029,3,1586,939.2766501162679
9033,4,1639,938.8945857408518
9043,1,1498,937.3602154024616
9051,4,1647,936.5809500302486
9065,2,1705,936.1856893372271
9079,0,1269,933.5159365478706
9083,3,1590,933.2755363095142
9091,4,1655,931.9873927906175
9105,1,1512,931.0794396010256
9113,3,1598,930.8962267851257
9114,5,1375,929.8926495188358
9120,5,1381,929.2045457739596
9126,2,1711,928.4164226831276
9127,4,1656,927.4382445635746
9137,4,1666,926.8726914891531
9145,3,1606,926.1733420471027
9151,2,1717,925.1256579059504
9157,5,1387,925.0968504280067
9163,0,1275,922.5275810649337
9177,1,1526,922.425926274603
9181,2,1721,921.8578920672276
9185,3,1610,921.4975097099563
9199,4,1680,921.2545021844227
9200,5,1388,921.0246939026385
9214,5,1402,920.3494239504853
9215,2,1722,919.6920399076091
9223,3,1618,919.1770190035091
9229,2,1728,919.1521490600388
9243,0,1289,917.8921571553234
9245,2,1730,915.925926321606
9253,2,1738,914.8554917251548
9254,3,1619,914.5704577247027
9258,3,1623,913.9978385416516
9264,1,1532,913.9311930092152
9268,4,1684,913.5014009438947
9272,3,1627,911.7144181148449
9276,4,1688,911.3099067690184
9278,5,1404,910.9967906188763
9282,2,1742,910.5983893484744
9284,1,1534,910.3381204530981
9294,5,1414,909.6759262452222
9304,3,1637,909.4422253238184
9314,1,1544,909.1466757071976
9322,4,1696,909.1287988224591
9324,2,1744,908.4845009696977
9332,2,1752,907.4311930561905
9342,0,1299,907.2439878796363
9344,4,1698,904.7974476644333
9352,3,1645,903.8103241328654
9358,4,1704,903.7209870114962
9360,2,1754,903.2420095280401
9366,1,1550,903.2357516439857
9368,5,1416,903.127652370175
9376,2,1762,902.2006845461283
9382,5,1422,901.8290963644454
9386,4,1708,900.5067664703324
9392,0,1305,899.7786761967451
9398,1,1556,899.7258068002568
9399,3,1646,899.3541037133244
9400,3,1647,898.800121876539
9414,4,1722,898.3764985238464
9420,3,1653,898.2468127560098
9421,2,1763,898.0590242321445
9429,5,1430,897.9553449043145
9435,2,1769,897.5439595561144
9445,1,1566,896.2429309398983
9453,0,1313,895.3544064223776
9455,3,1655,894.9410167037727
9456,2,1770,894.4658002825192
9466,2,1780,893.954802655462
9467,3,1656,893.844411245961
9473,3,1662,893.2971018191002
9479,5,1436,892.8409094100997
9487,4,1730,890.9984973433344
9493,1,1572,890.4974460702133
9497,3,1666,890.0270761820807
9499,0,1315,889.5182790429363
9500,5,1437,889.0424794278015
9508,2,1788,888.876404889932
9514,5,1443,888.4124916204844
9518,0,1319,888.0703424972763
9524,3,1672,887.8601444274168
9528,1,1576,887.0852420789043
9532,4,1734,886.8361105501666
9538,0,1325,885.1876424450369
9542,2,1792,884.8545865252839
9548,1,1582,884.8248734450679
9558,4,1744,884.7693198760504
9568,5,1453,884.6509012200386
9572,3,1676,884.6291869726459
9578,2,1798,882.857143252663
9580,3,1678,882.4880671955381
9586,1,1588,881.455752561005
9594,3,1686,881.421335292283
9604,0,1335,880.8962267068912
9618,2,1812,879.8776422197541
9620,4,1746,879.6438212146093
9628,4,1754,878.6257668413059
9638,5,1463,878.4506197272183
9642,1,1592,878.1120910287112
9646,3,1690,877.1797156722224
9647,1,1593,875.8969852732299
9648,1,1594,875.3449469901631
9654,3,1696,875.0739648667601
9656,1,1596,874.7936013523694
9664,4,1762,874.5767660954879
9670,0,1341,873.8295883066219
9680,1,1606,873.6929828047439
9681,2,1813,873.0022079009887
9689,2,1821,872.5151686249214
9699,5,1473,872.3350994304715
9705,3,1702,871.933962633851
9706,4,1763,870.5645326663173
9716,4,1773,870.0655637614135
9722,0,1347,869.6401941767072
9728,3,1708,868.8160990770841
9742,2,1835,868.6381113235088
9748,1,1612,868.2310090659048
9750,5,1475,866.3026140325258
9756,3,1714,865.720140884885
9766,0,1357,865.4881220434946
9774,4,1781,865.106831610027
9780,5,1481,865.1059325223978
9786,1,1618,864.9863527059097
9794,3,1722,862.6458580125842
9808,2,1849,861.9346053000445
9814,1,1624,861.7657605463594
9816,5,1483,861.5352805350536
9817,4,1782,861.1799389506697
9818,4,1783,860.691556467151
9824,5,1489,860.3514837984089
9828,4,1787,860.203721804702
9834,0,1363,858.649594985475
9835,3,1723,858.580139742441
9837,1,1626,858.5689658658206
9845,4,1795,858.257842972057
9851,3,1729,858.0745795919023
9865,1,1640,857.5086104346781
9873,5,1497,856.8191742611939
9881,2,1857,855.3326126182005
9895,3,1743,855.0534995020433
9897,0,1365,854.5946444584812
9903,4,1801,854.392102628206
9909,0,1371,853.2509160420876
9915,5,1503,852.1534739328129
9923,2,1865,851.6047392214211
9933,4,1811,851.5153350014174
9937,1,1644,850.1585369339309
9943,0,1377,849.2432533910053
9945,5,1505,848.6867933993999
9955,3,1753,848.0851983041485
9959,1,1648,848.0815088643766
9960,2,1866,847.9088475803242
9968,5,1513,847.5373757341683
9972,2,1870,847.449089355678
9982,4,1821,846.7630822036206
9988,1,1654,846.0145634553542
9998,2,1880,845.6149736573572
10008,0,1387,845.2705159046373
